{"category":"SR_Admit_Card","page":2,"total_pages":2,"total":23,"jobs":[{"category":"SR_Admit_Card","title":"Railway RRB NTPC 10+2 UG Level CEN 07/2025 Exam City Details 2026","post_date":"2026-05-22","last_date":"2025-12-04","status":"admit_card_released","slug":"sr_admit_card-railway-rrb-ntpc-102-ug-level-cen-072025-exam-city-details-2026-9ce140","short_information":"Indian Railway Railway Recruitment Board RRB Non Technical Popular Categories NTPC UnderGraduate Level Recruitment CEN 07/2025. Those candidates who are Enrolled in This Vacancy Can Exam City / Download Admit Card. Read the notification for RRB NTPC 10+2 Level Commercial Cum Ticker Clerk, Train Clerk, Accounts Clerk Cum Typist, Junior Clerk Cum Typist Post 2026 eligibility, post information, selection procedure, Details, age limit, pay scale and all other information. Railway Recruitment Board (RRB) RRB NTPC 10+2 Under Graduate Level Recruitment 2025 RRB NTPC UG Exam 2026 CEN 07/2025 : Short Details of Notification","application_fee":"General / OBC / EWS : 500/- SC / ST / Female: 250/- PH (Divyang) : 250/- After Appear the Stage I Exam General / OBC / EWS : 400/- SC / ST / Female: 250/- PH (Divyang) : 250/- Pay the Examination Fee Through Cast at E Challan or Debit Card, Credit Card, Net Banking RRB NTPC 10+2","age_limit":"","eligibility":"Read the Notification. RRB NTPC Under Graduate Level Post Wise","total_post":"3050","important_dates":{"application_begin":"2025-10-28","last_date":"2025-12-04"},"tables":[{"table_name":"RRB NTPC 10+2 Notification 2025 : Age Limit as on 01/01/2025 Minimum Age : 18 Years Maximum Age : 30 Years Age Relaxation Extra as per RRB NTPC 10+2 Under Graduate CEN 07/2025 Recruitment Rules.","rows":[["Post Name","Total Post","RRB NTPC 10+2 Eligibility"],["Various Post Under Non Technical Popular Categories Under Graduate Level CEN 07/2025","3050","10+2 Intermediate Passed from a Recognized Board in India. More Eligibility Details Read the Notification."],["Post Name","Total Post"],["Commercial Cum Ticket Clerk","2424"],["Accounts Clerk Cum Typist","394"],["Junior Clerk Cum Typist","163"],["Trains Clerk","77"],["Download Notification","English | Hindi"]]}],"text_sections":[{"section":"How to Fill RRB NTPC 10+2 Recruitment Online Form 2025","content":"RRB NTPC 10+2 Recruitment for Various Post Candidate Can Apply Between 28/10/2025 to 04/12/2025 | Candidate Read the Notification Before Apply the Recruitment Application Form in RRB NTPC 10+2 Recruitment 2025. | Kindly Check and Collect the All Document - Eligibility, ID Proof, Address Details, Basic Details. | Kindly Ready Scan Document Related to Recruitment Form - Photo, Sign, ID Proof, Etc. | Before Submit the Application Form Must Check the Preview and All Column Carefully. | If Candidate Required to Paying the Application Fee Must Submit. If You have Not the Required Application Fees Your Form is Not Completed. | Take A Print Out of Final Submitted Form."}],"useful_links":[{"title":"Check Exam City / Admit Card","links":"https://rrb.digialm.com//EForms/configuredHtml/33128/100181/login.html"},{"title":"Download Exam City Notice","links":"https://www.rrbpatna.gov.in/pdf/Citi%20Intimation%20Slip%20Notice%20CEN%2007-2025%20English.pdf"},{"title":"Check Application Status","links":"https://www.rrbapply.gov.in/#/auth/home"},{"title":"Download Date Extended Notice","links":"https://www.rrbthiruvananthapuram.gov.in/assets/pdf/Corrigendum_CEN_072025_NTPCUG_English.pdf"},{"title":"Download Notification","links":["https://www.rrbchennai.gov.in/downloads/CEN-07-2025-NTPC-UnderGraduate-English.pdf","https://www.rrbchennai.gov.in/downloads/CEN-07-2025-NTPC-UnderGraduate-Hindi.pdf"]},{"title":"Official Website","links":"https://indianrailways.gov.in/"}],"homepage_serial":22},{"category":"SR_Admit_Card","title":"NTA CUET UG Admit Card / Hall Ticket 2026","post_date":"2026-05-22","last_date":"2026-02-04","status":"admit_card_released","slug":"sr_admit_card-nta-cuet-ug-admit-card-hall-ticket-2026-a1b7d3","short_information":"National Testing Agency NTA has released the online application for Common University Entrance Test CUET UG 2026 will start from 03 January 2026 and the last date to apply will be 26 February 2026.candidates should read the CUET UG 2026 information brochure for all the information related to the entrance exam like syllabus, eligibility, age limit, fees, Course and University List, information and other types of information and then apply. National Testing Agency (NTA) NTA Common University Admission Test CUET UG 2026 NTA CUET UG Exam 2026 : Short Details of Notification","application_fee":"General : 1000 /- EWS / OBC : 900/- SC / ST / PH : 800 /- Additional Subject Charge : General : 400 /- Each Subject EWS / OBC : 375/- Each Subject SC / ST / PH : 350/- Each Subject Pay the Examination Fee Through E Challan Offline Mode or Pay the Exam Fee Through Online Debit Card, Credit Card or Net Banking Fee Mode Common University Entrance Test CUET UG","age_limit":"","eligibility":", age limit, fees, Course and University List, information and other types of information and then apply. National Testing Agency (NTA) NTA Common University Admission Test CUET UG 2026 NTA CUET UG Exam 2026 : Short Details of Notification","total_post":"","important_dates":{"application_begin":"2026-01-03","last_date":"2026-02-04","admit_card":"2026-05-05","result_date":"Notified"},"tables":[{"table_name":"Common University Entrance Test CUET UG Notification 2026 : Age Limit No Age Limit in Common University Entrance Test CUET UG 2026 For More Information Read the Information Brochure.","rows":[["Exam Name","NTA CUET UG Eligibility 2026"],["Common University Admission Test CUET 2026","Passed / Appearing 10+2 Intermediate Exam in Any Recognized Board in India."],["Official Website","CUET UG 2026 Official Website"]]}],"text_sections":[],"useful_links":[{"title":"Download Admit Card","links":"https://examinationservices.nic.in/AdmitCardService/AcCuetUG/Login?enc=kEinmH8aTDfj7UJERQYzpuwaXWY32HbjAGdMV/iRIao="},{"title":"Check Exam City Details","links":"https://examinationservices.nic.in/AdmitCard/AuthForCity/Login?enc=DJ8reokIYhe/x0Hlb6GKax2VPCs2uGt9Ck0e7op3wXE="},{"title":"Download Exam City Notice","links":"https://cdnbbsr.s3waas.gov.in/s3d1a21da7bca4abff8b0b61b87597de73/uploads/2026/04/202604291825114087.pdf"},{"title":"For Update Subject","links":"https://examinationservices.nic.in/ExamSysCUETUG26/root/CandidateLogin.aspx?enc=Ei4cajBkK1gZSfgr53ImFYsjZOdyj8DuPcxGBqAK2DwPXgGzSvy8OkvXqQJ0Bni9"},{"title":"Download Update Subject Notice","links":"https://cdnbbsr.s3waas.gov.in/s3d1a21da7bca4abff8b0b61b87597de73/uploads/2026/04/202604171043356395.pdf"},{"title":"Apply Online (Re Open)","links":"https://cdnbbsr.s3waas.gov.in/s3d1a21da7bca4abff8b0b61b87597de73/uploads/2026/02/202602231004635159.pdf"},{"title":"Download Notice (Re Open)","links":"https://examinationservices.nic.in/ExamSysCUETUG26/root/Home.aspx?enc=Ei4cajBkK1gZSfgr53ImFYsjZOdyj8DuPcxGBqAK2DwPXgGzSvy8OkvXqQJ0Bni9"},{"title":"Download Correction Notice","links":"https://cdnbbsr.s3waas.gov.in/s3d1a21da7bca4abff8b0b61b87597de73/uploads/2026/02/202602091678087825.pdf"},{"title":"Download Date Extended Notice","links":"https://cdnbbsr.s3waas.gov.in/s3d1a21da7bca4abff8b0b61b87597de73/uploads/2026/01/202601301542882180.pdf"},{"title":"Download Information Brochure","links":"https://cdnbbsr.s3waas.gov.in/s3d1a21da7bca4abff8b0b61b87597de73/uploads/2026/01/202601031633478370.pdf"},{"title":"Download Syllabus","links":"https://cuet.nta.nic.in/cuetug-2026-syllabus/"},{"title":"Official Website","links":"https://cuet.nta.nic.in/"}],"homepage_serial":23},{"category":"SR_Admit_Card","title":"SSC GD Constable Admit Card 2026 for 25487 Post","post_date":"2026-05-22","last_date":"2025-12-31","status":"admit_card_released","slug":"sr_admit_card-ssc-gd-constable-admit-card-2026-for-25487-post-e9a01c","short_information":"Staff Selection Commission SSC has released the notification for Constable (GD) in Central Armed Police Forces (CAPFs) and SSF, and Rifleman (GD) in Assam Rifles Examination, 2026. Those Candidate Are Enrolled with Vacancy Can Check the Exam Exam Admit Card. Before applying, candidates must read the complete advertisement in which selection procedure, exam syllabus, pattern, exam date and other information will be available. Staff Selection Commission (SSC) SSC GD Constable Recruitment 2025 SSC Constable GD Exam 2026 : Short Details of Notification","application_fee":"General / OBC / EWS : 100/- SC / ST : 0/- Exempted Female : 0/- Exempted Correction Charge : 200/- First Time Correction Charge : 500/- (Second Time) Pay the Examination Fee Through Cast at E Challan or Debit Card, Credit Card, Net Banking SSC GD Constable","age_limit":"","eligibility":"Constable (GD) in Central Armed Police Forces (CAPFs) and SSF, and Rifleman (GD) in Assam Rifles Examination, 2026 25487 Class 10th Matric Exam Passed from Any Recognized Board in India. More Eligibility Details Read the Notification. SSC GD Constable Exam 2026: Category Wise","total_post":"25487","important_dates":{"application_begin":"2025-12-01","last_date":"2025-12-31"},"tables":[{"table_name":"SSC GD Constable Notification 2025 : Age Limit as on 01/01/2026 Minimum Age : 18 Years Maximum Age : 23 Years Age Relaxation Extra as per SSC Constable (GD) in Central Armed Police Forces (CAPFs) and SSF, and Rifleman (GD) in Assam Rifles Examination, 2026 Rules.","rows":[["Post Name","Total Post","SSC GD Constable Eligibility"],["Constable (GD) in Central Armed Police Forces (CAPFs) and SSF, and Rifleman (GD) in Assam Rifles Examination, 2026","25487","Class 10th Matric Exam Passed from Any Recognized Board in India. More Eligibility Details Read the Notification."],["Force Name","Gender","UR","EWS","OBC","SC","ST","Total"],["BSF","Male","222","53","113","78","58","524"],["BSF","Female","49","05","20","11","07","92"],["CISF","Male","5547","1321","2958","1918","1391","13135"],["CISF","Female","627","150","326","205","152","1460"],["CRPF","Male","2523","598","1343","870","32","5366"],["CRPF","Female","66","08","27","15","08","124"],["SSB","Male","752","176","412","257","167","1764"],["ITBP","Male","486","109","219","146","139","1099"],["ITBP","Female","91","16","38","24","25","194"],["AR","Male","658","157","278","161","302","1556"],["AR","Female","71","10","25","14","30","150"],["Gender","Height","Chest","Race","Time"],["Male (General / OBC / SC)","170","80-85","1.6 KM","8.5 Minute"],["Male ST","162.5","76-81","1.6 KM","8.5 Minute"],["Female (General / OBC /SC)","157","NA","800 Meter","5 Min"]]}],"text_sections":[{"section":"How to Fill SSC GD Constable Recruitment Online Form 2025","content":"SSC GD Constable Recruitment for Various Post Candidate Can Apply Between 01/12/2025 to 31/12/2025 | Candidate Read the Notification Before Apply the Recruitment Application Form in SSC GD Constable Recruitment 2025. | Kindly Check and Collect the All Document - Eligibility, ID Proof, Address Details, Basic Details. | Kindly Ready Scan Document Related to Recruitment Form - Photo, Sign, ID Proof, Etc. | Before Submit the Application Form Must Check the Preview and All Column Carefully. | If Candidate Required to Paying the Application Fee Must Submit. If You have Not the Required Application Fees Your Form is Not Completed. | Take A Print Out of Final Submitted Form."}],"useful_links":[{"title":"Download Admit Card","links":"https://ssc.gov.in/login"},{"title":"Download Postponed Notice","links":"https://ssc.gov.in/api/attachment/uploads/masterData/NoticeBoards/notice_17022026.pdf"},{"title":"Download Exam Notice","links":"https://ssc.gov.in/api/attachment/uploads/masterData/NoticeBoards/Notice_020126.pdf"},{"title":"Apply for Correction Form","links":"https://ssc.gov.in/"},{"title":"Download Correction Form Notification","links":"https://ssc.gov.in/api/attachment/uploads/masterData/NoticeBoards/Notice_090126.pdf"},{"title":"Download State Wise Vacancy","links":"https://ssc.gov.in/api/attachment/uploads/masterData/NoticeBoards/Tentative_Vacancy_08122025.pdf"},{"title":"Download Notification","links":"https://ssc.gov.in/api/attachment/uploads/masterData/NoticeBoards/notice_01122025.pdf"}],"homepage_serial":24}]}