{"category":"SR_Latest_Jobs","page":2,"total_pages":2,"total":24,"jobs":[{"category":"SR_Latest_Jobs","title":"CTET September 2026 Online Form","post_date":"2026-05-22","last_date":"2026-06-10","status":"active","slug":"sr_latest_jobs-ctet-september-2026-online-form-bd964d","short_information":"Central Board of Secondary Education (CBSE) has released the Central Teacher Eligibility Test CTET September 2026 Exam Notification. Those Candidates are Interested with CTET Can Apply Online from 11/05/2026 to 10/06/2026 .candidates should read the CTET 2026 information brochure for all the information related to the CTET exam like syllabus, eligibility, age limit, fees, Primary and Junior Level, information and other types of information and then apply. Central Board of Secondary Education (CBSE) Central Teacher Eligibility Test CTET September 2026 CTET September 2026 Exam : Short Details of Notification","application_fee":"For Single Paper : General / OBC / EWS: 1000 /- SC / ST / PH : 500/- For Both Paper Primary / Junior : General / OBC / EWS: 1200 /- SC / ST / PH : 600 /- Pay the Examination Fee Through Debit Card, Credit Card, Net Banking or E Challan CBSE CTET September 2026 Exam","age_limit":"","eligibility":"","total_post":"","important_dates":{"application_begin":"2026-05-11","last_date":"2026-06-10","exam_date":"2026-09-06","result_date":"October 2026"},"tables":[{"table_name":"CBSE CTET September 2026 Exam Eligibility Code Details","rows":[["How to Fill Form (Video Hindi)","Version I | Version II"],["Official Website","CTET Official Website"]]}],"text_sections":[{"section":"How to Fill CTET September 2026 Exam Online Form","content":"Central Board of Secondary Education CBSE Are Released the Central Teacher Eligibility Test CTET Paper I to V & VI to VIII Exam September 2026. Candidate Can Apply Online 11/05/2026 to 10/06/2026. | Note: This year the exam centers are limited in every city, the information of which will be seen live by the candidate while filling the form. All the candidates who want their nearest exam center / city should apply as soon as possible because the slots of the exam city are limited. | Candidate Read the Notification Before Apply the Teacher Eligibility Test Application Form in Central TET CTET Exam Latest Online Form for September 2026. | Kindly Check and Collect the All Document - Eligibility, ID Proof, Address Details, Basic Details. | Kindly Ready Scan Document Related to Recruitment Form - Photo, Sign, ID Proof, Etc. | Before Submit the Application Form Must Check the Preview and All Column Carefully. | If Candidate Required to Paying the Application Fee Must Submit. If You have Not t"}],"useful_links":[{"title":"Apply Online","links":"https://examinationservices.nic.in/ExamSysCTET/root/Home.aspx?enc=Ei4cajBkK1gZSfgr53ImFfEytN2I3LFrLvNrMJcZJNmO/XE3+xNuu3rFt9agQvt0"},{"title":"Download CTET September 2026 Information Brochure","links":"https://cdnbbsr.s3waas.gov.in/s3443dec3062d0286986e21dc0631734c9/uploads/2026/05/202605111250310617.pdf"},{"title":"Download CTET September 2026 Notice","links":"https://cdnbbsr.s3waas.gov.in/s3443dec3062d0286986e21dc0631734c9/uploads/2026/05/2026051163782266.pdf"},{"title":"Official Website","links":"https://ctet.nic.in/"}],"homepage_serial":23},{"category":"SR_Latest_Jobs","title":"Bihar BPSC 72 Pre Exam Online Form 2026 for 1186 Post","post_date":"2026-05-22","last_date":"2026-05-31","status":"active","slug":"sr_latest_jobs-bihar-bpsc-72-pre-exam-online-form-2026-for-1186-post-c0ad34","short_information":"Bihar Public Service Commission (BPSC) has released the notification for the recruitment of Integrated 72nd Combined (Preliminary) Competitive Exam 2026. Those Candidates Are Interested to the Following BPSC 72 Pre Exam 2026 Vacancy Can Apply Online from 07/05/2026 to 31/05/2026. See the advertisement for information related to age limit, syllabus, Department wise post, selection procedure, pay scale in BPSC Integrated 72nd Combined (Preliminary) Competitive Recruitment 2026. Bihar Public Service Commission (BPSC) Bihar BPSC Integrated 72nd Combined (Preliminary) Competitive Exam 2026 Bihar BPSC 72nd CCE Exam 2026 : Short Details of Notification","application_fee":"General / BC/ Other State : 100/- SC / ST / PH : 100/- Female Candidate (Bihar Dom.) : 100/- Pay the Exam Fee Through Online / Offline Fee Mode Only BPSC 72 Exam","age_limit":"","eligibility":"Bihar BPSC Various Post Under 72th Pre 2026 1033 Bachelor Degree in Any Stream in Any Recognized University in India. For Post Wise Eligibility Details Read the Notification Financial Administrative Officer and Other Post 153 Bachelor Degree with Home Science, Psychology, Sociology, Commerce, Economics, Mathematics, or Statistics from Any Recognized University in India. For Post Wise Eligibility Details Read the Notification. BPSC 72 Notification 2026 : Category Wise","total_post":"1186","important_dates":{"application_begin":"2026-05-07","last_date":"2026-05-31","admit_card":"Before Exam"},"tables":[{"table_name":"BPSC 72 Exam Notification 2026 : Age Limit as on 01/08/2025 Minimum Age : 21-22 Years (Post Wise) Maximum Age : 37 Male Maximum Age : 40 Female Age Relaxation Extra as per BPSC 72 Pre Examination Rules.","rows":[["Post Name","Total Post","BPSC 72nd Exam Eligibility"],["Bihar BPSC Various Post Under 72th Pre 2026","1033","Bachelor Degree in Any Stream in Any Recognized University in India. For Post Wise Eligibility Details Read the Notification"],["Financial Administrative Officer and Other Post","153","Bachelor Degree with Home Science, Psychology, Sociology, Commerce, Economics, Mathematics, or Statistics from Any Recognized University in India. For Post Wise Eligibility Details Read the Notification."],["BPSC 72 Notification 2026 : Category Wise Vacancy Details Exam Name UR EWS EBC BC BC Female SC ST Total BPSC 72 Various Post Exam 2026 466 105 180 124 31 162 09 1077 BPSC 72 Other Post 24 05 06 09 04 04 01 153","Exam Name","UR","EWS","EBC","BC","BC Female","SC","ST","Total","BPSC 72 Various Post Exam 2026","466","105","180","124","31","162","09","1077","BPSC 72 Other Post","24","05","06","09","04","04","01","153"],["Exam Name","UR","EWS","EBC","BC","BC Female","SC","ST","Total"],["BPSC 72 Various Post Exam 2026","466","105","180","124","31","162","09","1077"],["BPSC 72 Other Post","24","05","06","09","04","04","01","153"],["Official Website","BPSC Official Website"]]}],"text_sections":[],"useful_links":[{"title":"Apply Online (OTR)","links":"https://bpsconline.bihar.gov.in/candidate/login"},{"title":"Download Corrigendum Notice Date 06/05/2026","links":"https://bpsc.bihar.gov.in/wp-content/uploads/BPSC_content/Notices/Corrigendum-Integrated-72nd-CCE-Pre-Advt.-44-vacancies-of-Sugarcane-Officer-deleted_BPSC-20260506-0jupsy.pdf"},{"title":"Official Website","links":"https://bpsc.bihar.gov.in/"}],"homepage_serial":25},{"category":"SR_Latest_Jobs","title":"Rajasthan RSSB Teaching Associate Online Form 2026 for 3540 Post","post_date":"2026-05-22","last_date":"2026-06-03","status":"active","slug":"sr_latest_jobs-rajasthan-rssb-teaching-associate-online-form-2026-for-3540-post-438fa4","short_information":"Rajasthan Staff Selection Board RSSB RSMSSB has released the Contractual Teaching Associate Advt No 06/2026 Notification 2026. Those candidates who are Enrolled in this Rajasthan Contractual Teaching Associate Recruitment 2026 Exam can Apply Online from 05/05/2026 to 03/06/2026. Read the notification for RSSB Contractual Teaching Associate Exam, eligibility, Subject Details information, Document Required, age limit, How to Apply and all other information. Rajasthan Staff Selection Board (RSSB) | RSMSSB RSSB Contractual Teaching Associate Recruitment 2026 Rajasthan Teaching Associate Advt No. : 06/2026 : Short Details of Notification","application_fee":"General / OBC : 600/- OBC NCL : 400/- SC / ST : 400/- Correction Charge : 300/- This fee is for one time registration, now after paying the OTR fee once, the candidate will not have to pay the application fee again and again. Pay the Exam Fee Through Emitra CSC Center, Debit Card, Credit Card, Net Banking. RSMSSB Contractual Teaching Associate","age_limit":"","eligibility":"Read the Notification. RSSB Teaching Associate Vacancy 2026 : Subject Wise","total_post":"3540","important_dates":{"application_begin":"2026-05-05","last_date":"2026-06-03","admit_card":"Before Exam"},"tables":[{"table_name":"RSMSSB Contractual Teaching Associate Notification 2026 : Age Limit as on 01/01/2027 Minimum Age : 21 Years Maximum Age : 40 Years Age Relaxation Extra as per RSSB Contractual Teaching Associate Advt No : 06/2026 Post Recruitment Exam 2026 Recruitment Rules .","rows":[["Rajasthan Contractual Teaching Associate Recruitment 2026 : Vacancy Details Total : 3540 Post Post Name Total Post RSSB Rajasthan Contractual Teaching Associate Eligibility Contractual Teaching Associate 3540 Master Degree in Related Subject with Minimum 55% Marks. UGC / CSIR NET / SLET / SET Exam Passed For Department / Post Wise Eligibility Details Read the Notification. RSSB Teaching Associate Vacancy 2026 : Subject Wise Vacancy Details Subject Name Total Post Computer Science 58 Drawing 36 Economics 121 English 314 Geography 365 Hindi 393 History 355 Home Science 104 Political Scie n ce 339 Public Administration 74 Sanskrit 150 Sociology 185 Urdu 32 Botany 85 Chemistry 103 Mathematics 90 Physics 85 Zoology 95 A B S T 30 Business Administration 30 E A F M 3 0 Law 33 Horticulture 44 Agriculture Engineering 43 Agriculture Economics 43 Agriculture Extension and Communication 44 Agronomic 43 Animal Science 43 Entomology 43 Genetics and Plant Breeding 43 Plant Pathology 43 Soil Science and Agricultural Chemistry 44","Post Name","Total Post","RSSB Rajasthan Contractual Teaching Associate Eligibility","Contractual Teaching Associate","3540","Master Degree in Related Subject with Minimum 55% Marks. UGC / CSIR NET / SLET / SET Exam Passed For Department / Post Wise Eligibility Details Read the Notification.","RSSB Teaching Associate Vacancy 2026 : Subject Wise Vacancy Details","Subject Name Total Post Computer Science 58 Drawing 36 Economics 121 English 314 Geography 365 Hindi 393 History 355 Home Science 104 Political Scie n ce 339 Public Administration 74 Sanskrit 150 Sociology 185 Urdu 32 Botany 85 Chemistry 103 Mathematics 90 Physics 85 Zoology 95 A B S T 30 Business Administration 30 E A F M 3 0 Law 33 Horticulture 44 Agriculture Engineering 43 Agriculture Economics 43 Agriculture Extension and Communication 44 Agronomic 43 Animal Science 43 Entomology 43 Genetics and Plant Breeding 43 Plant Pathology 43 Soil Science and Agricultural Chemistry 44","Subject Name","Total Post","Computer Science","58","Drawing","36","Economics","121","English","314","Geography","365","Hindi","393","History","355","Home Science","104","Political Scie n ce","339","Public Administration","74","Sanskrit","150","Sociology","185","Urdu","32","Botany","85","Chemistry","103","Mathematics","90","Physics","85","Zoology","95","A B S T","30","Business Administration","30","E A F M","3 0","Law","33","Horticulture","44","Agriculture Engineering","43","Agriculture Economics","43","Agriculture Extension and Communication","44","Agronomic","43","Animal Science","43","Entomology","43","Genetics and Plant Breeding","43","Plant Pathology","43","Soil Science and Agricultural Chemistry","44"],["Post Name","Total Post","RSSB Rajasthan Contractual Teaching Associate Eligibility"],["Contractual Teaching Associate","3540","Master Degree in Related Subject with Minimum 55% Marks. UGC / CSIR NET / SLET / SET Exam Passed For Department / Post Wise Eligibility Details Read the Notification."],["Subject Name Total Post Computer Science 58 Drawing 36 Economics 121 English 314 Geography 365 Hindi 393 History 355 Home Science 104 Political Scie n ce 339 Public Administration 74 Sanskrit 150 Sociology 185 Urdu 32 Botany 85 Chemistry 103 Mathematics 90 Physics 85 Zoology 95 A B S T 30 Business Administration 30 E A F M 3 0 Law 33 Horticulture 44 Agriculture Engineering 43 Agriculture Economics 43 Agriculture Extension and Communication 44 Agronomic 43 Animal Science 43 Entomology 43 Genetics and Plant Breeding 43 Plant Pathology 43 Soil Science and Agricultural Chemistry 44","Subject Name","Total Post","Computer Science","58","Drawing","36","Economics","121","English","314","Geography","365","Hindi","393","History","355","Home Science","104","Political Scie n ce","339","Public Administration","74","Sanskrit","150","Sociology","185","Urdu","32","Botany","85","Chemistry","103","Mathematics","90","Physics","85","Zoology","95","A B S T","30","Business Administration","30","E A F M","3 0","Law","33","Horticulture","44","Agriculture Engineering","43","Agriculture Economics","43","Agriculture Extension and Communication","44","Agronomic","43","Animal Science","43","Entomology","43","Genetics and Plant Breeding","43","Plant Pathology","43","Soil Science and Agricultural Chemistry","44"],["Subject Name","Total Post"],["Computer Science","58"],["Drawing","36"],["Economics","121"],["English","314"],["Geography","365"],["Hindi","393"],["History","355"],["Home Science","104"],["Political Scie n ce","339"],["Public Administration","74"],["Sanskrit","150"],["Sociology","185"],["Urdu","32"],["Botany","85"],["Chemistry","103"],["Mathematics","90"],["Physics","85"],["Zoology","95"],["A B S T","30"],["Business Administration","30"],["E A F M","3 0"],["Law","33"],["Horticulture","44"],["Agriculture Engineering","43"],["Agriculture Economics","43"],["Agriculture Extension and Communication","44"],["Agronomic","43"],["Animal Science","43"],["Entomology","43"],["Genetics and Plant Breeding","43"],["Plant Pathology","43"],["Soil Science and Agricultural Chemistry","44"],["Official Website","RSSB Official Website"]]}],"text_sections":[],"useful_links":[{"title":"Apply Online (Through OTR)","links":"https://sso.rajasthan.gov.in/signin"},{"title":"Official Website","links":"https://rssb.rajasthan.gov.in/"}],"homepage_serial":26},{"category":"SR_Latest_Jobs","title":"UPESSC UP Assistant Professor BEd Online Form 2026 for 107 Post","post_date":"2026-05-22","last_date":"2026-05-27","status":"active","slug":"sr_latest_jobs-upessc-up-assistant-professor-bed-online-form-2026-for-107-post-f07138","short_information":"Uttar Pradesh Education Service Selection Commission UPESSC has relased UPHESC Assistant Professor BEd Notification. Those candidates who are interested in this Uttar Pradesh UP Assistant Professor Recruitment 2025 Exam can Re Apply Apply Online from 28 April 2026 to 27 May 2026. Read the notification for UPHESC Assistant Professor BEd Exam, eligibility, Subject Details information, Document Required, age limit, How to Apply and all other information. Uttar Pradesh Education Service Selection Commission UPESSC UPESSC UP Assistant Professor BEd Recruitment 2025 UPHESC Asst. Professor Advt No. : 51| Short Details of Notification","application_fee":"General/OBC/EWS : 2000/- SC / ST / PH : 1000/- Pay the Exam Fee Through Online Debit Card, Credit Card, Net Banking or Pay the Exam Fee Through Offline Mode Only. UPHESC Assistant Professor","age_limit":"","eligibility":"Assistant Professor Bed 107 Master Degree in Science / Mathematics / Social Science / Commerce / Language (BED Subjects) with Minimum 55% Marks, M.Ed Exam with 55% Marks OR Master Degree in Sociology with 55% Marks with B.Ed / BLEd / Equivalent Degree. UGC NET / PHd / D.Phill More Details Read the Notification How to Fill UPHESC Assistant Professor Online Form 2026 Note : Applicants who have already applied under the B.Ed subject need to apply again. Uttar Pradesh Education Service Selection Commission UPESSC, Uttar Pradesh Higher Education Service Commission UPHESC 51 Are Issued Assistant Professor BEd Subject Recruitment 2025 – Advt No. 51. Candidate Can Re Apply Apply Between 28/04/2026 to 27/05/2026. Candidate Read the Notification Before Apply the Recruitment Application Form in UPESSC Advt No. 51 Assistant Professor BEd Subject Recruitment 2025. Kindly Check and Collect the All Document - Eligibility, ID Proof, Address Details, Basic Details. Kindly Ready Scan Document Related to Recruitment Form - Photo, Sign, ID Proof, Etc. Before Submit the Application Form Must Check the Preview and All Column Carefully. Take A Print Out of Final Submitted Form. Interested Candidates Can Read the Full Notification Before Apply Online. Download Mobile Apps for the Latest Updates Android Apps Apple IOS Apps Some Useful","total_post":"107","important_dates":{"application_begin":"2026-04-28","last_date":"2026-05-27","exam_date":"2026-07-28","admit_card":"2026-07-25"},"tables":[{"table_name":"UPHESC Assistant Professor Notification 2025 : Age Limit Details Minimum Age : NA Maximum Age : 62 Years. Age Relaxation Extra as per UPHESC Assistant Professor Recruitment Rules.","rows":[["Post Name","Total Post","UPESSC Assistant Professor Eligibility"],["Assistant Professor Bed","107","Master Degree in Science / Mathematics / Social Science / Commerce / Language (BED Subjects) with Minimum 55% Marks, M.Ed Exam with 55% Marks OR Master Degree in Sociology with 55% Marks with B.Ed / BLEd / Equivalent Degree. UGC NET / PHd / D.Phill More Details Read the Notification"],["Official Website","UPESSC Official Website"]]}],"text_sections":[{"section":"How to Fill UPHESC Assistant Professor Online Form 2026","content":"Note : Applicants who have already applied under the B.Ed subject need to apply again. | Uttar Pradesh Education Service Selection Commission UPESSC, Uttar Pradesh Higher Education Service Commission UPHESC 51 Are Issued Assistant Professor BEd Subject Recruitment 2025 – Advt No. 51. Candidate Can Re Apply Apply Between 28/04/2026 to 27/05/2026. | Candidate Read the Notification Before Apply the Recruitment Application Form in UPESSC Advt No. 51 Assistant Professor BEd Subject Recruitment 2025. | Kindly Check and Collect the All Document - Eligibility, ID Proof, Address Details, Basic Details. | Kindly Ready Scan Document Related to Recruitment Form - Photo, Sign, ID Proof, Etc. | Before Submit the Application Form Must Check the Preview and All Column Carefully. | Take A Print Out of Final Submitted Form."}],"useful_links":[{"title":"Apply Online","links":"https://bed.upessc.org/otr/"},{"title":"Download Revised Notification","links":"https://upessc.up.gov.in/Notice/bab9-b117-4b45-85d1-aaba.pdf"},{"title":"Official Website","links":"https://upessc.up.gov.in/"}],"homepage_serial":27}]}