{"page":7,"total_pages":9,"total":174,"jobs":[{"category":"SR_Result","title":"AIIMS Nursing Officer NORCET 10th Stage II Result 2026 for 2551 Post","listing_date":null,"organization":null,"post_name":null,"total_vacancy":null,"sequence":null,"apply_online_link":null,"apply_mode":null,"job_location":null,"minimum_age":null,"maximum_age":null,"form_pdf_link":null,"form_pdf_free_link":null,"application_form_pdf_link":null,"official_website_link":null,"official_notification_pdf_link":null},{"category":"SR_Result","title":"NTA NSSNET Result 2026 Admissions for Navayug School","listing_date":null,"organization":null,"post_name":null,"total_vacancy":null,"sequence":null,"apply_online_link":null,"apply_mode":null,"job_location":null,"minimum_age":null,"maximum_age":null,"form_pdf_link":null,"form_pdf_free_link":null,"application_form_pdf_link":null,"official_website_link":null,"official_notification_pdf_link":null},{"category":"SR_Result","title":"India Post GDS Third Result / Merit List 2026 for 28635 Post","listing_date":null,"organization":null,"post_name":null,"total_vacancy":null,"sequence":null,"apply_online_link":null,"apply_mode":null,"job_location":null,"minimum_age":null,"maximum_age":null,"form_pdf_link":null,"form_pdf_free_link":null,"application_form_pdf_link":null,"official_website_link":null,"official_notification_pdf_link":null},{"category":"SR_Result","title":"MPESB MP Police ASI HC Computer Result 2026 for 89 Post","listing_date":null,"organization":null,"post_name":null,"total_vacancy":null,"sequence":null,"apply_online_link":null,"apply_mode":null,"job_location":null,"minimum_age":null,"maximum_age":null,"form_pdf_link":null,"form_pdf_free_link":null,"application_form_pdf_link":null,"official_website_link":null,"official_notification_pdf_link":null},{"category":"SR_Result","title":"IDBI Bank JAM and Assistant Manager Result 2026 for 1300 Post","listing_date":null,"organization":null,"post_name":null,"total_vacancy":null,"sequence":null,"apply_online_link":null,"apply_mode":null,"job_location":null,"minimum_age":null,"maximum_age":null,"form_pdf_link":null,"form_pdf_free_link":null,"application_form_pdf_link":null,"official_website_link":null,"official_notification_pdf_link":null},{"category":"SR_Result","title":"UPSC CDS I Result 2026","listing_date":null,"organization":null,"post_name":null,"total_vacancy":null,"sequence":null,"apply_online_link":null,"apply_mode":null,"job_location":null,"minimum_age":null,"maximum_age":null,"form_pdf_link":null,"form_pdf_free_link":null,"application_form_pdf_link":null,"official_website_link":null,"official_notification_pdf_link":null},{"category":"SR_Result","title":"UPSC Civil Services IAS 2025 and IFS Final Result with Marks 2026","listing_date":null,"organization":null,"post_name":null,"total_vacancy":null,"sequence":null,"apply_online_link":null,"apply_mode":null,"job_location":null,"minimum_age":null,"maximum_age":null,"form_pdf_link":null,"form_pdf_free_link":null,"application_form_pdf_link":null,"official_website_link":null,"official_notification_pdf_link":null},{"category":"SR_Result","title":"UPSC NDA I Exam Result 2026","listing_date":null,"organization":null,"post_name":null,"total_vacancy":null,"sequence":null,"apply_online_link":null,"apply_mode":null,"job_location":null,"minimum_age":null,"maximum_age":null,"form_pdf_link":null,"form_pdf_free_link":null,"application_form_pdf_link":null,"official_website_link":null,"official_notification_pdf_link":null},{"category":"SR_Admit_Card","title":"UPBED Entrance Exam Admit Card 2026 for 2 year Course UP BEd JEE","listing_date":null,"organization":null,"post_name":null,"total_vacancy":null,"sequence":null,"apply_online_link":null,"apply_mode":null,"job_location":null,"minimum_age":null,"maximum_age":null,"form_pdf_link":null,"form_pdf_free_link":null,"application_form_pdf_link":null,"official_website_link":null,"official_notification_pdf_link":null},{"category":"SR_Admit_Card","title":"MPESB MP Police Subedar Stenographer ASI Skill Test Admit Card 2026","listing_date":null,"organization":null,"post_name":null,"total_vacancy":null,"sequence":null,"apply_online_link":null,"apply_mode":null,"job_location":null,"minimum_age":null,"maximum_age":null,"form_pdf_link":null,"form_pdf_free_link":null,"application_form_pdf_link":null,"official_website_link":null,"official_notification_pdf_link":null},{"category":"SR_Admit_Card","title":"MPESB Van Rakshak, Jail Prahari New Exam Date 2026 for 1679 Post","listing_date":null,"organization":null,"post_name":null,"total_vacancy":null,"sequence":null,"apply_online_link":null,"apply_mode":null,"job_location":null,"minimum_age":null,"maximum_age":null,"form_pdf_link":null,"form_pdf_free_link":null,"application_form_pdf_link":null,"official_website_link":null,"official_notification_pdf_link":null},{"category":"SR_Admit_Card","title":"CSBC Bihar Police Constable Operator Exam Date 2026 for 993 Post","listing_date":null,"organization":null,"post_name":null,"total_vacancy":null,"sequence":null,"apply_online_link":null,"apply_mode":null,"job_location":null,"minimum_age":null,"maximum_age":null,"form_pdf_link":null,"form_pdf_free_link":null,"application_form_pdf_link":null,"official_website_link":null,"official_notification_pdf_link":null},{"category":"SR_Admit_Card","title":"CSBC Bihar Police Constable Special Branch Exam Date 2026","listing_date":null,"organization":null,"post_name":null,"total_vacancy":null,"sequence":null,"apply_online_link":null,"apply_mode":null,"job_location":null,"minimum_age":null,"maximum_age":null,"form_pdf_link":null,"form_pdf_free_link":null,"application_form_pdf_link":null,"official_website_link":null,"official_notification_pdf_link":null},{"category":"SR_Admit_Card","title":"Allahabad High Court UP HJS 2023 Mains Exam Date 2026 for 83 Post","listing_date":null,"organization":null,"post_name":null,"total_vacancy":null,"sequence":null,"apply_online_link":null,"apply_mode":null,"job_location":null,"minimum_age":null,"maximum_age":null,"form_pdf_link":null,"form_pdf_free_link":null,"application_form_pdf_link":null,"official_website_link":null,"official_notification_pdf_link":null},{"category":"SR_Admit_Card","title":"Indian Maritime University IMU CET Admit Card 2026","listing_date":null,"organization":null,"post_name":null,"total_vacancy":null,"sequence":null,"apply_online_link":null,"apply_mode":null,"job_location":null,"minimum_age":null,"maximum_age":null,"form_pdf_link":null,"form_pdf_free_link":null,"application_form_pdf_link":null,"official_website_link":null,"official_notification_pdf_link":null},{"category":"SR_Admit_Card","title":"UPSSSC UP Lekhpal Mains Answer Key 2026 for 7994 Post","listing_date":null,"organization":null,"post_name":null,"total_vacancy":null,"sequence":null,"apply_online_link":null,"apply_mode":null,"job_location":null,"minimum_age":null,"maximum_age":null,"form_pdf_link":null,"form_pdf_free_link":null,"application_form_pdf_link":null,"official_website_link":null,"official_notification_pdf_link":null},{"category":"SR_Admit_Card","title":"NTA NEET UG Entrance Update Exam City Details 2026","listing_date":null,"organization":null,"post_name":null,"total_vacancy":null,"sequence":null,"apply_online_link":null,"apply_mode":null,"job_location":null,"minimum_age":null,"maximum_age":null,"form_pdf_link":null,"form_pdf_free_link":null,"application_form_pdf_link":null,"official_website_link":null,"official_notification_pdf_link":null},{"category":"SR_Admit_Card","title":"UPSC Civil Services IAS IFS Pre Admit Card 2026","listing_date":null,"organization":null,"post_name":null,"total_vacancy":null,"sequence":null,"apply_online_link":null,"apply_mode":null,"job_location":null,"minimum_age":null,"maximum_age":null,"form_pdf_link":null,"form_pdf_free_link":null,"application_form_pdf_link":null,"official_website_link":null,"official_notification_pdf_link":null},{"category":"SR_Admit_Card","title":"Indian Army Agniveer Rally Admit Card 2026","listing_date":null,"organization":null,"post_name":null,"total_vacancy":null,"sequence":null,"apply_online_link":null,"apply_mode":null,"job_location":null,"minimum_age":null,"maximum_age":null,"form_pdf_link":null,"form_pdf_free_link":null,"application_form_pdf_link":null,"official_website_link":null,"official_notification_pdf_link":null},{"category":"SR_Admit_Card","title":"DUVASU Mathura PVT Entrance Exam Admit Card 2026 for UGEE PGEE DEE","listing_date":null,"organization":null,"post_name":null,"total_vacancy":null,"sequence":null,"apply_online_link":null,"apply_mode":null,"job_location":null,"minimum_age":null,"maximum_age":null,"form_pdf_link":null,"form_pdf_free_link":null,"application_form_pdf_link":null,"official_website_link":null,"official_notification_pdf_link":null}]}