{"page":3,"total_pages":9,"total":174,"jobs":[{"category":"LATEST_JOBS NEW","title":"Delhi DPCC Trainee Vacancy 2026, Notification for 150 Posts -","listing_date":"","organization":"","post_name":"Eligibility","total_vacancy":"","sequence":35,"apply_online_link":"https://dpcc.delhi.gov.in/form/application-form-for-trainees","apply_mode":"","job_location":"","minimum_age":"18","maximum_age":"42","form_pdf_link":"","form_pdf_free_link":"","application_form_pdf_link":"","official_website_link":"https://dpcc.delhi.gov.in/","official_notification_pdf_link":"https://dpcc.delhi.gov.in/sites/default/files/DPCC/important-news/file.pdf"},{"category":"LATEST_JOBS NEW","title":"IDS Jaipur Vacancy 2026, Free Application Form, Apply For Driver, Junior Office Assistant & Class IV Posts -","listing_date":"","organization":"","post_name":"Eligibility","total_vacancy":"","sequence":36,"apply_online_link":"","apply_mode":"","job_location":"","minimum_age":"18","maximum_age":"40","form_pdf_link":"","form_pdf_free_link":"https://www.idsj.org/vacancies","application_form_pdf_link":"","official_website_link":"https://www.idsj.org/vacancies","official_notification_pdf_link":"https://www.idsj.org/vacancies"},{"category":"LATEST_JOBS NEW","title":"NVS Jaipur Counselors Vacancy 2026, Apply Online, Notification Out -","listing_date":"","organization":"","post_name":"Eligibility","total_vacancy":"","sequence":37,"apply_online_link":"https://www.crschooms.in/apply.php","apply_mode":"","job_location":"","minimum_age":"18","maximum_age":"50","form_pdf_link":"","form_pdf_free_link":"","application_form_pdf_link":"","official_website_link":"https://navodaya.gov.in/nvs/nvs-school/CHANDIGARH/en/home/index.html","official_notification_pdf_link":"https://www.crschooms.in/instructions/2026/jaipur_counselor____2026.pdf"},{"category":"LATEST_JOBS NEW","title":"NVS Patna Counselors Vacancy 2026, Apply Online, Notification Out -","listing_date":"","organization":"","post_name":"Eligibility","total_vacancy":"","sequence":38,"apply_online_link":"https://www.crschooms.in/apply.php","apply_mode":"","job_location":"","minimum_age":"18","maximum_age":"50","form_pdf_link":"","form_pdf_free_link":"","application_form_pdf_link":"","official_website_link":"https://navodaya.gov.in/nvs/nvs-school/CHANDIGARH/en/home/index.html","official_notification_pdf_link":"https://www.crschooms.in/instructions/2026/patna_counselor__2026.pdf"},{"category":"LATEST_JOBS NEW","title":"NVS Chandigarh Counselors Vacancy 2026, Apply Online, Notification Out -","listing_date":"","organization":"","post_name":"Eligibility","total_vacancy":"","sequence":39,"apply_online_link":"https://www.crschooms.in/apply.php","apply_mode":"","job_location":"","minimum_age":"18","maximum_age":"50","form_pdf_link":"","form_pdf_free_link":"","application_form_pdf_link":"","official_website_link":"https://navodaya.gov.in/nvs/nvs-school/CHANDIGARH/en/home/index.html","official_notification_pdf_link":"https://www.crschooms.in/instructions/2026/chandigarh_counselor__2026.pdf"},{"category":"LATEST_JOBS NEW","title":"DSSC Recruitment 2026, Apply For LDC, Civilian Motor Driver, MTS, Stenographer & Technical Posts -","listing_date":"","organization":"","post_name":"Total","total_vacancy":"","sequence":40,"apply_online_link":"https://www.ids.nic.in/","apply_mode":"","job_location":"","minimum_age":"18","maximum_age":"27","form_pdf_link":"","form_pdf_free_link":"","application_form_pdf_link":"","official_website_link":"https://www.ids.nic.in/","official_notification_pdf_link":""},{"category":"LATEST_JOBS NEW","title":"Army Canteen Danapur Cantt Vacancy 2026, Check Notification & Apply -","listing_date":"","organization":"","post_name":"Eligibility","total_vacancy":"","sequence":41,"apply_online_link":"","apply_mode":"","job_location":"","minimum_age":"18","maximum_age":"45","form_pdf_link":"","form_pdf_free_link":"https://drive.google.com/file/d/1TvZXdbSssgV9UC-A7yBQFhBamyhR4jqU/view?usp=drive_link","application_form_pdf_link":"","official_website_link":"","official_notification_pdf_link":""},{"category":"LATEST_JOBS NEW","title":"CSIR NIIST MTS Vacancy 2026, Notification Out, Apply Online -","listing_date":"","organization":"","post_name":"Eligibility","total_vacancy":"","sequence":42,"apply_online_link":"http://recruit.niist.res.in/recruit_mainmenu.asp","apply_mode":"","job_location":"","minimum_age":"18","maximum_age":"25","form_pdf_link":"","form_pdf_free_link":"","application_form_pdf_link":"","official_website_link":"https://www.niist.res.in/recruitment-post-multi-tasking-staff-vide-advt-no012026-0","official_notification_pdf_link":"https://www.niist.res.in/multitaskingstaff/advt_012026.pdf"},{"category":"LATEST_JOBS NEW","title":"Electricity Ombudsman Delhi Vacancy 2026, Free Application Form & Apply Now -","listing_date":"","organization":"","post_name":"Eligibility","total_vacancy":"","sequence":43,"apply_online_link":"","apply_mode":"","job_location":"","minimum_age":"18","maximum_age":"62","form_pdf_link":"","form_pdf_free_link":"https://electricityombudsmandelhi.co.in/pdf/Advertisement%20Inviting%20Applications%20for%20the%20Post%20of%20Personal%20Assistant.PDF","application_form_pdf_link":"","official_website_link":"https://electricityombudsmandelhi.co.in/vacancies","official_notification_pdf_link":"https://electricityombudsmandelhi.co.in/pdf/Advertisement%20Inviting%20Applications%20for%20the%20Post%20of%20Personal%20Assistant.PDF"},{"category":"LATEST_JOBS NEW","title":"RRB Technician Vacancy 2026, Notification Out for 6,565 Posts, Check Details -","listing_date":"","organization":"Railway Recruitment Board (RRB)","post_name":"Technician (Grade I, II, III)","total_vacancy":"6565","sequence":44,"apply_online_link":"","apply_mode":"Online","job_location":"All India","minimum_age":"18","maximum_age":"33","form_pdf_link":"","form_pdf_free_link":"","application_form_pdf_link":"","official_website_link":"https://www.rrbcdg.gov.in/","official_notification_pdf_link":""},{"category":"LATEST_JOBS NEW","title":"Haryana Sahitya Evam Sanskriti Akademi Recruitment 2026, Free Application Form, Apply Now -","listing_date":"","organization":"","post_name":"Eligibility","total_vacancy":"","sequence":48,"apply_online_link":"","apply_mode":"","job_location":"","minimum_age":"18","maximum_age":"42","form_pdf_link":"","form_pdf_free_link":"https://drive.google.com/file/d/1TvZXdbSssgV9UC-A7yBQFhBamyhR4jqU/view?usp=drive_link","application_form_pdf_link":"","official_website_link":"https://haryanaakademi.ac.in/","official_notification_pdf_link":"https://haryanaakademi.ac.in/assets/Advertisement.pdf"},{"category":"LATEST_JOBS NEW","title":"IGNOU Re-Registration Form July 2026, Notification Out, Apply Online -","listing_date":"","organization":"Indira Gandhi National Open University (IGNOU)","post_name":"","total_vacancy":"","sequence":51,"apply_online_link":"https://onlinerr.ignou.ac.in/","apply_mode":"Online","job_location":"","minimum_age":"","maximum_age":"","form_pdf_link":"","form_pdf_free_link":"","application_form_pdf_link":"","official_website_link":"https://ignouadmission.samarth.edu.in/index.php/site/programmes","official_notification_pdf_link":""},{"category":"LATEST_JOBS NEW","title":"Haryana Police Admit Card 2026, 6th PMT List Out & New Shortlist Released, General 50 % -","listing_date":"","organization":"Haryana Staff Selection Commission","post_name":"Constable (Male/Female)","total_vacancy":"5500","sequence":52,"apply_online_link":"https://adv012026.hryssc.com/","apply_mode":"Online","job_location":"","minimum_age":"18","maximum_age":"28","form_pdf_link":"","form_pdf_free_link":"","application_form_pdf_link":"","official_website_link":"https://hssc.gov.in/","official_notification_pdf_link":""},{"category":"LATEST_JOBS NEW","title":"ECHS Hisar Vacancy 2026, Free Application Form For Clerk, Data Entry Operator, Dental Hygienist, Medical Officer Posts -","listing_date":"","organization":"","post_name":"Eligibility","total_vacancy":"","sequence":53,"apply_online_link":"","apply_mode":"","job_location":"","minimum_age":"18","maximum_age":"66","form_pdf_link":"","form_pdf_free_link":"https://www.echs.gov.in/assets/policy/applicationform.pdf","application_form_pdf_link":"","official_website_link":"https://www.echs.gov.in/","official_notification_pdf_link":""},{"category":"LATEST_JOBS NEW","title":"Samagra Shiksha Narnaul Recruitment 2026, Check Full Info & Apply -","listing_date":"","organization":"","post_name":"Total","total_vacancy":"","sequence":54,"apply_online_link":"","apply_mode":"","job_location":"","minimum_age":"18","maximum_age":"42","form_pdf_link":"","form_pdf_free_link":"","application_form_pdf_link":"","official_website_link":"https://hsspp.in/","official_notification_pdf_link":""},{"category":"LATEST_JOBS NEW","title":"Samagra Shiksha Kurukshetra Recruitment 2026, Check Full Info & Apply -","listing_date":"","organization":"","post_name":"Total","total_vacancy":"","sequence":55,"apply_online_link":"","apply_mode":"","job_location":"","minimum_age":"18","maximum_age":"42","form_pdf_link":"","form_pdf_free_link":"","application_form_pdf_link":"","official_website_link":"https://hsspp.in/","official_notification_pdf_link":""},{"category":"LATEST_JOBS NEW","title":"Samagra Shiksha Hisar Recruitment 2026, Check Full Info & Apply -","listing_date":"","organization":"","post_name":"Total","total_vacancy":"","sequence":56,"apply_online_link":"","apply_mode":"","job_location":"","minimum_age":"18","maximum_age":"42","form_pdf_link":"","form_pdf_free_link":"","application_form_pdf_link":"","official_website_link":"https://hsspp.in/","official_notification_pdf_link":""},{"category":"LATEST_JOBS NEW","title":"Charkhi Dadri Safai Karmchari Vacancy 2026, Notification Out, Apply Now -","listing_date":"","organization":"","post_name":"Eligibility","total_vacancy":"","sequence":59,"apply_online_link":"","apply_mode":"","job_location":"","minimum_age":"18","maximum_age":"55","form_pdf_link":"https://drive.google.com/file/d/1TvZXdbSssgV9UC-A7yBQFhBamyhR4jqU/view?usp=sharing","form_pdf_free_link":"","application_form_pdf_link":"","official_website_link":"","official_notification_pdf_link":""},{"category":"LATEST_JOBS NEW","title":"Shri Vishwakarma Skill University Recruitment 2026, Notification Out & Apply Now -","listing_date":"","organization":"","post_name":"Eligibility","total_vacancy":"","sequence":60,"apply_online_link":"","apply_mode":"","job_location":"","minimum_age":"18","maximum_age":"42","form_pdf_link":"https://www.svsu.ac.in/wp-content/uploads/2026/04/Advertisement%20Skill%20Assistant%20Professor%20(1).pdf","form_pdf_free_link":"","application_form_pdf_link":"","official_website_link":"https://www.svsu.ac.in/index.php","official_notification_pdf_link":"https://www.svsu.ac.in/wp-content/uploads/2026/04/Advertisement%20Skill%20Assistant%20Professor%20(1).pdf"},{"category":"LATEST_JOBS NEW","title":"Central University of Punjab Recruitment 2026, Apply For Professor, Associate Professor, Assistant Professor, Librarian, and Deputy Librarian Posts -","listing_date":"","organization":"","post_name":"Eligibility","total_vacancy":"","sequence":61,"apply_online_link":"https://curec.samarth.ac.in/index.php/search/site/index","apply_mode":"","job_location":"","minimum_age":"18","maximum_age":"64","form_pdf_link":"","form_pdf_free_link":"","application_form_pdf_link":"","official_website_link":"https://cup.edu.in/","official_notification_pdf_link":"https://cup.edu.in/sites/default/files/T%20CUPB-26-27-006.pdf"}]}