{"page":1,"total_pages":9,"total":174,"jobs":[{"category":"OFFLINE_FORM","title":"NBRC Research Associate-I Vacancy 2026, Apply Now , Free Form PDF -","listing_date":"21 May. 2026","organization":"","post_name":"Total","total_vacancy":"","sequence":1,"apply_online_link":"","apply_mode":"","job_location":"","minimum_age":"18","maximum_age":"40","form_pdf_link":"","form_pdf_free_link":"https://www.nbrc.ac.in/newweb/wp-content/uploads/2026/05/Dr-Soumya-Research-Assoc-1.pdf","application_form_pdf_link":"","official_website_link":"https://www.nbrc.ac.in/newweb/","official_notification_pdf_link":"https://www.nbrc.ac.in/newweb/wp-content/uploads/2026/05/Dr-Soumya-Research-Assoc-1.pdf"},{"category":"OFFLINE_FORM","title":"APS Jaipur Vacancy 2026, Apply for Teaching and Non-Teaching Posts -","listing_date":"20 May. 2026","organization":"","post_name":"Total","total_vacancy":"","sequence":2,"apply_online_link":"","apply_mode":"","job_location":"","minimum_age":"18","maximum_age":"60","form_pdf_link":"","form_pdf_free_link":"","application_form_pdf_link":"","official_website_link":"https://apsjaipur.edu.in/index.php#ads","official_notification_pdf_link":"https://apsjaipur.edu.in/admin/uploads/notice_6a0bc40d8aa4e3.14950259.pdf"},{"category":"OFFLINE_FORM","title":"MLF Chandigarh Recruitment 2026, Application Form And Apply Now -","listing_date":"20 May. 2026","organization":"","post_name":"Eligibility","total_vacancy":"","sequence":4,"apply_online_link":"","apply_mode":"","job_location":"","minimum_age":"18","maximum_age":"45","form_pdf_link":"","form_pdf_free_link":"https://militaryliteraturefestival.com/vacancy-sevadar-cum-safaiwala-may-2026.php","application_form_pdf_link":"","official_website_link":"https://militaryliteraturefestival.com/vacancy-sevadar-cum-safaiwala-may-2026.php","official_notification_pdf_link":"https://militaryliteraturefestival.com/vacancy-sevadar-cum-safaiwala-may-2026.php"},{"category":"OFFLINE_FORM","title":"Indian Railway Catering and Tourism Corporation Limited Hospitality Monitor Recruitment 2026 -","listing_date":"20 May. 2026","organization":"","post_name":"Total","total_vacancy":"","sequence":5,"apply_online_link":"","apply_mode":"","job_location":"","minimum_age":"18","maximum_age":"27","form_pdf_link":"","form_pdf_free_link":"https://www.irctc.com/assets/images2/NotificationContractualHospitalityMonitors13may26.pdf","application_form_pdf_link":"","official_website_link":"https://www.irctc.com/new-openings.php","official_notification_pdf_link":"https://www.irctc.com/assets/images2/NotificationContractualHospitalityMonitors13may26.pdf"},{"category":"OFFLINE_FORM","title":"IDS Jaipur Vacancy 2026, Free Application Form, Apply For Driver, Junior Office Assistant & Class IV Posts -","listing_date":"18 May. 2026","organization":"","post_name":"Eligibility","total_vacancy":"","sequence":9,"apply_online_link":"","apply_mode":"","job_location":"","minimum_age":"18","maximum_age":"40","form_pdf_link":"","form_pdf_free_link":"https://www.idsj.org/vacancies","application_form_pdf_link":"","official_website_link":"https://www.idsj.org/vacancies","official_notification_pdf_link":"https://www.idsj.org/vacancies"},{"category":"OFFLINE_FORM","title":"DSSC Recruitment 2026, Apply For LDC, Civilian Motor Driver, MTS, Stenographer & Technical Posts -","listing_date":"18 May. 2026","organization":"","post_name":"Total","total_vacancy":"","sequence":10,"apply_online_link":"https://www.ids.nic.in/","apply_mode":"","job_location":"","minimum_age":"18","maximum_age":"27","form_pdf_link":"","form_pdf_free_link":"","application_form_pdf_link":"","official_website_link":"https://www.ids.nic.in/","official_notification_pdf_link":""},{"category":"OFFLINE_FORM","title":"Army Canteen Danapur Cantt Vacancy 2026, Check Notification & Apply -","listing_date":"18 May. 2026","organization":"","post_name":"Eligibility","total_vacancy":"","sequence":11,"apply_online_link":"","apply_mode":"","job_location":"","minimum_age":"18","maximum_age":"45","form_pdf_link":"","form_pdf_free_link":"https://drive.google.com/file/d/1TvZXdbSssgV9UC-A7yBQFhBamyhR4jqU/view?usp=drive_link","application_form_pdf_link":"","official_website_link":"","official_notification_pdf_link":""},{"category":"OFFLINE_FORM","title":"Electricity Ombudsman Delhi Vacancy 2026, Free Application Form & Apply Now -","listing_date":"18 May. 2026","organization":"","post_name":"Eligibility","total_vacancy":"","sequence":12,"apply_online_link":"","apply_mode":"","job_location":"","minimum_age":"18","maximum_age":"62","form_pdf_link":"","form_pdf_free_link":"https://electricityombudsmandelhi.co.in/pdf/Advertisement%20Inviting%20Applications%20for%20the%20Post%20of%20Personal%20Assistant.PDF","application_form_pdf_link":"","official_website_link":"https://electricityombudsmandelhi.co.in/vacancies","official_notification_pdf_link":"https://electricityombudsmandelhi.co.in/pdf/Advertisement%20Inviting%20Applications%20for%20the%20Post%20of%20Personal%20Assistant.PDF"},{"category":"OFFLINE_FORM","title":"Haryana Sahitya Evam Sanskriti Akademi Recruitment 2026, Free Application Form, Apply Now -","listing_date":"16 May. 2026","organization":"","post_name":"Eligibility","total_vacancy":"","sequence":13,"apply_online_link":"","apply_mode":"","job_location":"","minimum_age":"18","maximum_age":"42","form_pdf_link":"","form_pdf_free_link":"https://drive.google.com/file/d/1TvZXdbSssgV9UC-A7yBQFhBamyhR4jqU/view?usp=drive_link","application_form_pdf_link":"","official_website_link":"https://haryanaakademi.ac.in/","official_notification_pdf_link":"https://haryanaakademi.ac.in/assets/Advertisement.pdf"},{"category":"OFFLINE_FORM","title":"ECHS Hisar Vacancy 2026, Free Application Form For Clerk, Data Entry Operator, Dental Hygienist, Medical Officer Posts -","listing_date":"15 May. 2026","organization":"","post_name":"Eligibility","total_vacancy":"","sequence":15,"apply_online_link":"","apply_mode":"","job_location":"","minimum_age":"18","maximum_age":"66","form_pdf_link":"","form_pdf_free_link":"https://www.echs.gov.in/assets/policy/applicationform.pdf","application_form_pdf_link":"","official_website_link":"https://www.echs.gov.in/","official_notification_pdf_link":""},{"category":"OFFLINE_FORM","title":"Samagra Shiksha Narnaul Recruitment 2026, Check Full Info & Apply -","listing_date":"15 May. 2026","organization":"","post_name":"Total","total_vacancy":"","sequence":16,"apply_online_link":"","apply_mode":"","job_location":"","minimum_age":"18","maximum_age":"42","form_pdf_link":"","form_pdf_free_link":"","application_form_pdf_link":"","official_website_link":"https://hsspp.in/","official_notification_pdf_link":""},{"category":"OFFLINE_FORM","title":"Samagra Shiksha Kurukshetra Recruitment 2026, Check Full Info & Apply -","listing_date":"15 May. 2026","organization":"","post_name":"Total","total_vacancy":"","sequence":17,"apply_online_link":"","apply_mode":"","job_location":"","minimum_age":"18","maximum_age":"42","form_pdf_link":"","form_pdf_free_link":"","application_form_pdf_link":"","official_website_link":"https://hsspp.in/","official_notification_pdf_link":""},{"category":"OFFLINE_FORM","title":"Samagra Shiksha Hisar Recruitment 2026, Check Full Info & Apply -","listing_date":"15 May. 2026","organization":"","post_name":"Total","total_vacancy":"","sequence":18,"apply_online_link":"","apply_mode":"","job_location":"","minimum_age":"18","maximum_age":"42","form_pdf_link":"","form_pdf_free_link":"","application_form_pdf_link":"","official_website_link":"https://hsspp.in/","official_notification_pdf_link":""},{"category":"OFFLINE_FORM","title":"Charkhi Dadri Safai Karmchari Vacancy 2026, Notification Out, Apply Now -","listing_date":"15 May. 2026","organization":"","post_name":"Eligibility","total_vacancy":"","sequence":19,"apply_online_link":"","apply_mode":"","job_location":"","minimum_age":"18","maximum_age":"55","form_pdf_link":"https://drive.google.com/file/d/1TvZXdbSssgV9UC-A7yBQFhBamyhR4jqU/view?usp=sharing","form_pdf_free_link":"","application_form_pdf_link":"","official_website_link":"","official_notification_pdf_link":""},{"category":"OFFLINE_FORM","title":"Shri Vishwakarma Skill University Recruitment 2026, Notification Out & Apply Now -","listing_date":"15 May. 2026","organization":"","post_name":"Eligibility","total_vacancy":"","sequence":20,"apply_online_link":"","apply_mode":"","job_location":"","minimum_age":"18","maximum_age":"42","form_pdf_link":"https://www.svsu.ac.in/wp-content/uploads/2026/04/Advertisement%20Skill%20Assistant%20Professor%20(1).pdf","form_pdf_free_link":"","application_form_pdf_link":"","official_website_link":"https://www.svsu.ac.in/index.php","official_notification_pdf_link":"https://www.svsu.ac.in/wp-content/uploads/2026/04/Advertisement%20Skill%20Assistant%20Professor%20(1).pdf"},{"category":"OFFLINE_FORM","title":"ICAR-NRCE Hisar Project Assistant Recruitment 2026, Apply Now & Salary 20000/-","listing_date":"15 May. 2026","organization":"","post_name":"Eligibility","total_vacancy":"","sequence":21,"apply_online_link":"","apply_mode":"","job_location":"","minimum_age":"21","maximum_age":"45","form_pdf_link":"","form_pdf_free_link":"http://nrce.gov.in/wp-content/uploads/2026/05/Advt-dt-12-05-26-3-7.pdf","application_form_pdf_link":"","official_website_link":"http://nrce.gov.in/index.php/jobs-positions/","official_notification_pdf_link":"http://nrce.gov.in/wp-content/uploads/2026/05/Advt-dt-12-05-26-3-7.pdf"},{"category":"OFFLINE_FORM","title":"Sainik School Nainital Recruitment 2026, Apply For Plumber, Ward Boy, Nurse, and Matron Posts -","listing_date":"15 May. 2026","organization":"","post_name":"Total","total_vacancy":"","sequence":22,"apply_online_link":"","apply_mode":"","job_location":"","minimum_age":"18","maximum_age":"50","form_pdf_link":"https://ssghorakhal.org/storage/announcements/zDkg6wqsivXd6ewoXJGU59eqoF52EYRTofNWST7Q.pdf","form_pdf_free_link":"","application_form_pdf_link":"","official_website_link":"https://ssghorakhal.org/","official_notification_pdf_link":"https://ssghorakhal.org/storage/announcements/zDkg6wqsivXd6ewoXJGU59eqoF52EYRTofNWST7Q.pdf"},{"category":"OFFLINE_FORM","title":"KVK Ambala Driver Vacancy 2026, Free Application From & Notification -","listing_date":"14 May. 2026","organization":"Society for Creation of Heaven on Earth (SCHE)","post_name":"Driver","total_vacancy":"","sequence":23,"apply_online_link":"","apply_mode":"Offline","job_location":"Haryana","minimum_age":"18","maximum_age":"30","form_pdf_link":"https://cms.kvk2.in/assets/uploads/1777456739.Advertisement%20,%20Terms%20&%20Conditions%20&%20Application%20form%20for%20the%20post%20of%20Driver%20in%20Krishi%20Vigyan%20Kendra,%20Ambala.pdf","form_pdf_free_link":"","application_form_pdf_link":"","official_website_link":"","official_notification_pdf_link":"https://cms.kvk2.in/assets/uploads/1777456739.Advertisement%20,%20Terms%20&%20Conditions%20&%20Application%20form%20for%20the%20post%20of%20Driver%20in%20Krishi%20Vigyan%20Kendra,%20Ambala.pdf"},{"category":"OFFLINE_FORM","title":"Konkan Railway Executive Vacancy 2026, Apply For Various Posts -","listing_date":"09 May. 2026","organization":"Konkan Railway Corporation Limited (KRCL)","post_name":"Various Executive","total_vacancy":"17","sequence":24,"apply_online_link":"","apply_mode":"Offline","job_location":"All India","minimum_age":"18","maximum_age":"30","form_pdf_link":"","form_pdf_free_link":"https://konkanrailway.com/sites/default/files/2026-05/Employment_Notification_Executive_Categories.pdf","application_form_pdf_link":"","official_website_link":"https://konkanrailway.com/","official_notification_pdf_link":"https://konkanrailway.com/sites/default/files/2026-05/Employment_Notification_Executive_Categories.pdf"},{"category":"OFFLINE_FORM","title":"New Delhi Municipal Council Recruitment 2026, Notification for 254 Posts -","listing_date":"09 May. 2026","organization":"New Delhi Municipal Council","post_name":"Teaching & Non-Teaching Consultant","total_vacancy":"254","sequence":25,"apply_online_link":"","apply_mode":"Offline","job_location":"New Delhi","minimum_age":"18","maximum_age":"65","form_pdf_link":"","form_pdf_free_link":"https://www.ndmc.gov.in/public_notices_new.aspx","application_form_pdf_link":"","official_website_link":"https://ndmc.gov.in/vacancy_new.aspx","official_notification_pdf_link":"https://www.ndmc.gov.in/public_notices_new.aspx"}]}