{"page":5,"total_pages":9,"total":174,"jobs":[{"category":"LATEST_JOBS NEW","title":"New Delhi Municipal Council Recruitment 2026, Notification for 254 Posts -","listing_date":"","organization":"New Delhi Municipal Council","post_name":"Teaching & Non-Teaching Consultant","total_vacancy":"254","sequence":89,"apply_online_link":"","apply_mode":"Offline","job_location":"New Delhi","minimum_age":"18","maximum_age":"65","form_pdf_link":"","form_pdf_free_link":"https://www.ndmc.gov.in/public_notices_new.aspx","application_form_pdf_link":"","official_website_link":"https://ndmc.gov.in/vacancy_new.aspx","official_notification_pdf_link":"https://www.ndmc.gov.in/public_notices_new.aspx"},{"category":"LATEST_JOBS NEW","title":"ICAR-CIRB Hisar Recruitment 2026, Vacancy for Young Professional-II posts Salary ₹42,000 -","listing_date":"","organization":"ICAR-Central Institute for Research on Buffaloes (ICAR-CIRB), Hisar","post_name":"Young Professional-II","total_vacancy":"","sequence":90,"apply_online_link":"","apply_mode":"Online by mail","job_location":"Haryana","minimum_age":"21","maximum_age":"45","form_pdf_link":"","form_pdf_free_link":"https://cirb.res.in/wp-content/uploads/2026/05/Advt.-no.-13-for-website_compressed.pdf","application_form_pdf_link":"","official_website_link":"https://cirb.res.in/#1515148541514-a02a1a2b-8047","official_notification_pdf_link":"https://cirb.res.in/wp-content/uploads/2026/05/Advt.-no.-13-for-website_compressed.pdf"},{"category":"LATEST_JOBS NEW","title":"SHKM GMC Nalhar Recruitment 2026, Vacancy for Senior Resident posts, Apply Now -","listing_date":"","organization":"S.H.K.M. Government Medical College, Nalhar","post_name":"Senior Resident","total_vacancy":"81","sequence":91,"apply_online_link":"","apply_mode":"Offline","job_location":"Haryana","minimum_age":"22","maximum_age":"45","form_pdf_link":"","form_pdf_free_link":"","application_form_pdf_link":"","official_website_link":"https://www.gmcmewat.ac.in/","official_notification_pdf_link":"https://drive.google.com/file/d/1xn27tqOKq213s9uLuzWPT436pRJUZlhZ/view?usp=sharing"},{"category":"LATEST_JOBS NEW","title":"ICAR-IIWBR Karnal Recruitment 2026, Notification Out, Apply Now -","listing_date":"","organization":"ICAR-Indian Institute of Wheat and Barley Research, Karnal","post_name":"SRF, YP-II, and YP-I","total_vacancy":"","sequence":92,"apply_online_link":"","apply_mode":"Offline","job_location":"Haryana","minimum_age":"21","maximum_age":"45","form_pdf_link":"https://iiwbr.org.in/announcement/","form_pdf_free_link":"","application_form_pdf_link":"","official_website_link":"https://iiwbr.org.in/announcement/","official_notification_pdf_link":""},{"category":"SR_Latest_Jobs","title":"SSC Combined Graduate Level CGL Online Form 2026 for 12256 Post","listing_date":null,"organization":null,"post_name":null,"total_vacancy":null,"sequence":null,"apply_online_link":null,"apply_mode":null,"job_location":null,"minimum_age":null,"maximum_age":null,"form_pdf_link":null,"form_pdf_free_link":null,"application_form_pdf_link":null,"official_website_link":null,"official_notification_pdf_link":null},{"category":"SR_Latest_Jobs","title":"Uttar Pradesh UP Anganwadi Worker Bharti Online Form 2026","listing_date":null,"organization":null,"post_name":null,"total_vacancy":null,"sequence":null,"apply_online_link":null,"apply_mode":null,"job_location":null,"minimum_age":null,"maximum_age":null,"form_pdf_link":null,"form_pdf_free_link":null,"application_form_pdf_link":null,"official_website_link":null,"official_notification_pdf_link":null},{"category":"SR_Latest_Jobs","title":"MPESB Hospital Assistant Online Form 2026 for 1200 Post","listing_date":null,"organization":null,"post_name":null,"total_vacancy":null,"sequence":null,"apply_online_link":null,"apply_mode":null,"job_location":null,"minimum_age":null,"maximum_age":null,"form_pdf_link":null,"form_pdf_free_link":null,"application_form_pdf_link":null,"official_website_link":null,"official_notification_pdf_link":null},{"category":"SR_Latest_Jobs","title":"Jharkhand JAC JHTET 2026 Online Form for Primary and Junior Level","listing_date":null,"organization":null,"post_name":null,"total_vacancy":null,"sequence":null,"apply_online_link":null,"apply_mode":null,"job_location":null,"minimum_age":null,"maximum_age":null,"form_pdf_link":null,"form_pdf_free_link":null,"application_form_pdf_link":null,"official_website_link":null,"official_notification_pdf_link":null},{"category":"SR_Latest_Jobs","title":"UPSC CDS II Online Form 2026 for 451 Post","listing_date":null,"organization":null,"post_name":null,"total_vacancy":null,"sequence":null,"apply_online_link":null,"apply_mode":null,"job_location":null,"minimum_age":null,"maximum_age":null,"form_pdf_link":null,"form_pdf_free_link":null,"application_form_pdf_link":null,"official_website_link":null,"official_notification_pdf_link":null},{"category":"SR_Latest_Jobs","title":"UPSC NDA II Online Form 2026 for 394 Post","listing_date":null,"organization":null,"post_name":null,"total_vacancy":null,"sequence":null,"apply_online_link":null,"apply_mode":null,"job_location":null,"minimum_age":null,"maximum_age":null,"form_pdf_link":null,"form_pdf_free_link":null,"application_form_pdf_link":null,"official_website_link":null,"official_notification_pdf_link":null},{"category":"SR_Latest_Jobs","title":"NTA UGC NET June 2026 Online Form for JRF and Assistant Professor","listing_date":null,"organization":null,"post_name":null,"total_vacancy":null,"sequence":null,"apply_online_link":null,"apply_mode":null,"job_location":null,"minimum_age":null,"maximum_age":null,"form_pdf_link":null,"form_pdf_free_link":null,"application_form_pdf_link":null,"official_website_link":null,"official_notification_pdf_link":null},{"category":"SR_Latest_Jobs","title":"Indian Air Force AFCAT 02/2026 Batch Online Form 2026","listing_date":null,"organization":null,"post_name":null,"total_vacancy":null,"sequence":null,"apply_online_link":null,"apply_mode":null,"job_location":null,"minimum_age":null,"maximum_age":null,"form_pdf_link":null,"form_pdf_free_link":null,"application_form_pdf_link":null,"official_website_link":null,"official_notification_pdf_link":null},{"category":"SR_Latest_Jobs","title":"Railway RRC SECR Nagpur Apprentices Online Form 2026 for 1079 Post","listing_date":null,"organization":null,"post_name":null,"total_vacancy":null,"sequence":null,"apply_online_link":null,"apply_mode":null,"job_location":null,"minimum_age":null,"maximum_age":null,"form_pdf_link":null,"form_pdf_free_link":null,"application_form_pdf_link":null,"official_website_link":null,"official_notification_pdf_link":null},{"category":"SR_Latest_Jobs","title":"Railway RRC SECR Bilaspur Apprentices Online Form 2026 for 1191 Post","listing_date":null,"organization":null,"post_name":null,"total_vacancy":null,"sequence":null,"apply_online_link":null,"apply_mode":null,"job_location":null,"minimum_age":null,"maximum_age":null,"form_pdf_link":null,"form_pdf_free_link":null,"application_form_pdf_link":null,"official_website_link":null,"official_notification_pdf_link":null},{"category":"SR_Latest_Jobs","title":"State Bank of India SBI Apprentices Online Form 2026 for 7150 Post","listing_date":null,"organization":null,"post_name":null,"total_vacancy":null,"sequence":null,"apply_online_link":null,"apply_mode":null,"job_location":null,"minimum_age":null,"maximum_age":null,"form_pdf_link":null,"form_pdf_free_link":null,"application_form_pdf_link":null,"official_website_link":null,"official_notification_pdf_link":null},{"category":"SR_Latest_Jobs","title":"Bank of Baroda BOB Apprentices Online Form 2026 for 5000 Post","listing_date":null,"organization":null,"post_name":null,"total_vacancy":null,"sequence":null,"apply_online_link":null,"apply_mode":null,"job_location":null,"minimum_age":null,"maximum_age":null,"form_pdf_link":null,"form_pdf_free_link":null,"application_form_pdf_link":null,"official_website_link":null,"official_notification_pdf_link":null},{"category":"SR_Latest_Jobs","title":"BPSSC ASI Technical Online Form 2026 for 22 Post","listing_date":null,"organization":null,"post_name":null,"total_vacancy":null,"sequence":null,"apply_online_link":null,"apply_mode":null,"job_location":null,"minimum_age":null,"maximum_age":null,"form_pdf_link":null,"form_pdf_free_link":null,"application_form_pdf_link":null,"official_website_link":null,"official_notification_pdf_link":null},{"category":"SR_Latest_Jobs","title":"UPSSSC Forest Guard Online Form 2026 for 708 Post","listing_date":null,"organization":null,"post_name":null,"total_vacancy":null,"sequence":null,"apply_online_link":null,"apply_mode":null,"job_location":null,"minimum_age":null,"maximum_age":null,"form_pdf_link":null,"form_pdf_free_link":null,"application_form_pdf_link":null,"official_website_link":null,"official_notification_pdf_link":null},{"category":"SR_Latest_Jobs","title":"Railway RRB Technician CEN 02/2026 Online Form 2026 for 6565 Post","listing_date":null,"organization":null,"post_name":null,"total_vacancy":null,"sequence":null,"apply_online_link":null,"apply_mode":null,"job_location":null,"minimum_age":null,"maximum_age":null,"form_pdf_link":null,"form_pdf_free_link":null,"application_form_pdf_link":null,"official_website_link":null,"official_notification_pdf_link":null},{"category":"SR_Latest_Jobs","title":"Navy SSC Executive IT Online Form 2026 for 15 Post","listing_date":null,"organization":null,"post_name":null,"total_vacancy":null,"sequence":null,"apply_online_link":null,"apply_mode":null,"job_location":null,"minimum_age":null,"maximum_age":null,"form_pdf_link":null,"form_pdf_free_link":null,"application_form_pdf_link":null,"official_website_link":null,"official_notification_pdf_link":null}]}