{"page":4,"total_pages":9,"total":174,"jobs":[{"category":"LATEST_JOBS NEW","title":"ICAR-NRCE Hisar Project Assistant Recruitment 2026, Apply Now & Salary 20000/-","listing_date":"","organization":"","post_name":"Eligibility","total_vacancy":"","sequence":62,"apply_online_link":"","apply_mode":"","job_location":"","minimum_age":"21","maximum_age":"45","form_pdf_link":"","form_pdf_free_link":"http://nrce.gov.in/wp-content/uploads/2026/05/Advt-dt-12-05-26-3-7.pdf","application_form_pdf_link":"","official_website_link":"http://nrce.gov.in/index.php/jobs-positions/","official_notification_pdf_link":"http://nrce.gov.in/wp-content/uploads/2026/05/Advt-dt-12-05-26-3-7.pdf"},{"category":"LATEST_JOBS NEW","title":"Sainik School Nainital Recruitment 2026, Apply For Plumber, Ward Boy, Nurse, and Matron Posts -","listing_date":"","organization":"","post_name":"Total","total_vacancy":"","sequence":63,"apply_online_link":"","apply_mode":"","job_location":"","minimum_age":"18","maximum_age":"50","form_pdf_link":"https://ssghorakhal.org/storage/announcements/zDkg6wqsivXd6ewoXJGU59eqoF52EYRTofNWST7Q.pdf","form_pdf_free_link":"","application_form_pdf_link":"","official_website_link":"https://ssghorakhal.org/","official_notification_pdf_link":"https://ssghorakhal.org/storage/announcements/zDkg6wqsivXd6ewoXJGU59eqoF52EYRTofNWST7Q.pdf"},{"category":"LATEST_JOBS NEW","title":"HKRN CNC Operator Recruitment 2026, Apply Online Notification Out -","listing_date":"","organization":"Haryana Kaushal Rozgar Nigam","post_name":"CNC Operator","total_vacancy":"10","sequence":64,"apply_online_link":"https://hkrnl.itiharyana.gov.in/VacantJobs","apply_mode":"Online","job_location":"","minimum_age":"18","maximum_age":"42","form_pdf_link":"","form_pdf_free_link":"","application_form_pdf_link":"","official_website_link":"https://hkrnl.itiharyana.gov.in/","official_notification_pdf_link":""},{"category":"LATEST_JOBS NEW","title":"AAICLAS Assistant Vacancy 2026, Apply Online For 62 Posts -","listing_date":"","organization":"","post_name":"Total","total_vacancy":"","sequence":65,"apply_online_link":"https://www.aaiclas.aero/","apply_mode":"","job_location":"","minimum_age":"18","maximum_age":"27","form_pdf_link":"","form_pdf_free_link":"","application_form_pdf_link":"","official_website_link":"https://www.aaiclas.aero/","official_notification_pdf_link":"https://www.aaiclas.aero/uploads/career/AAICLAS8231778658325.pdf"},{"category":"LATEST_JOBS NEW","title":"RRB Assistant Loco Pilot Recruitment 2026, Notification OUT, Apply Online -","listing_date":"","organization":"Railway Recruitment Board (RRB)","post_name":"Assistant Loco Pilot (ALP)","total_vacancy":"11127","sequence":66,"apply_online_link":"","apply_mode":"Online","job_location":"","minimum_age":"18","maximum_age":"30","form_pdf_link":"","form_pdf_free_link":"","application_form_pdf_link":"","official_website_link":"https://indianrailways.gov.in/railwayboard/index.jsp?lang=0","official_notification_pdf_link":""},{"category":"LATEST_JOBS NEW","title":"HBSE 10th Re-Check and Re-Evaluation Form 2026, Apply Now -","listing_date":"","organization":"Board of School Education, Haryana","post_name":"","total_vacancy":"","sequence":68,"apply_online_link":"https://bseh.org.in/home","apply_mode":"Online","job_location":"","minimum_age":"","maximum_age":"","form_pdf_link":"","form_pdf_free_link":"","application_form_pdf_link":"","official_website_link":"https://bseh.org.in/home","official_notification_pdf_link":"https://bseh.org.in/home"},{"category":"LATEST_JOBS NEW","title":"MDU UG & Integrated Course Admission Form 2026, Apply Online -","listing_date":"","organization":"Maharishi Dayanand University (MADU), Rohtak","post_name":"","total_vacancy":"","sequence":70,"apply_online_link":"https://mduadmission.samarth.edu.in/","apply_mode":"Online","job_location":"","minimum_age":"","maximum_age":"","form_pdf_link":"","form_pdf_free_link":"","application_form_pdf_link":"","official_website_link":"https://mdu.ac.in/","official_notification_pdf_link":"https://mdu.ac.in/UpFiles/UpPdfFiles/2026/May/4_05-11-2026_20-33-13_Prospectus%20for%204%20year%20UG,ITEP%20&%205%20year%20Integrated%20Program%202026-27.pdf"},{"category":"LATEST_JOBS NEW","title":"HBSE 10th Result 2026 Live, Downlaod Here -","listing_date":"","organization":"Board of School Education Haryana (BSEH)","post_name":"","total_vacancy":"","sequence":71,"apply_online_link":"","apply_mode":"","job_location":"","minimum_age":"","maximum_age":"","form_pdf_link":"","form_pdf_free_link":"","application_form_pdf_link":"","official_website_link":"https://bseh.org.in/home","official_notification_pdf_link":""},{"category":"LATEST_JOBS NEW","title":"NFL Management Trainee Vacancy 2026, Recruitment Info, Apply Online -","listing_date":"","organization":"National Fertilizers Limited (NFL)","post_name":"Management Trainee","total_vacancy":"21","sequence":72,"apply_online_link":"https://careers.nfl.co.in/advinfo.php?advertisement=9bf31c7ff062936a96d3c8bd1f8f2ff3","apply_mode":"Online","job_location":"All India","minimum_age":"18","maximum_age":"27","form_pdf_link":"","form_pdf_free_link":"","application_form_pdf_link":"","official_website_link":"https://www.nationalfertilizers.com/notice-board/","official_notification_pdf_link":"https://careers.nfl.co.in/uploads/upload_datails_doc/01-NFL2026-13.05.2026-management_trainee.pdf"},{"category":"LATEST_JOBS NEW","title":"SBI Bank Trade Finance Officer Vacancy 2026, Check Full Details & Apply Online -","listing_date":"","organization":"State Bank of India (SBI)","post_name":"Trade Finance Officer","total_vacancy":"100","sequence":74,"apply_online_link":"https://recruitment.sbi.bank.in/crpd-sco-2026-27-05/apply","apply_mode":"Online","job_location":"All India","minimum_age":"23","maximum_age":"32","form_pdf_link":"","form_pdf_free_link":"","application_form_pdf_link":"","official_website_link":"http://sbi.bank.in/hi/web/careers/current-openings","official_notification_pdf_link":"https://sbi.bank.in/documents/77530/57941334/13052026_ADV_CRPD_SC0_2026_27_05.pdf/7b1c920a-4aec-dc05-46ed-c1ff1397ee95?t=1778655133881"},{"category":"LATEST_JOBS NEW","title":"Indian Army TGC 144 Entry Form January 2027. Notification Out, Apply Online -","listing_date":"","organization":"Indian Army","post_name":"Total","total_vacancy":"30","sequence":75,"apply_online_link":"https://www.joinindianarmy.nic.in/Authentication.aspx","apply_mode":"Online","job_location":"All India","minimum_age":"20","maximum_age":"27","form_pdf_link":"","form_pdf_free_link":"","application_form_pdf_link":"","official_website_link":"https://joinindianarmy.nic.in/","official_notification_pdf_link":"https://joinindianarmy.nic.in/writereaddata/Portal/NotificationPDF/TGC_-_144_NOTIFICATION_BILINGUAL.pdf"},{"category":"LATEST_JOBS NEW","title":"AAICLAS Security Screener Vacancy 2026, Apply Online, Notification Out -","listing_date":"","organization":"AAI Cargo Logistics & Allied Services Company Limited (AAICLAS)","post_name":"Security Screener (Fresher)","total_vacancy":"158","sequence":76,"apply_online_link":"https://aaiclas.aero/","apply_mode":"Online","job_location":"All India","minimum_age":"18","maximum_age":"27","form_pdf_link":"","form_pdf_free_link":"","application_form_pdf_link":"","official_website_link":"https://aaiclas.aero/","official_notification_pdf_link":"https://aaiclas.aero/uploads/career/AAICLAS2591778668720.pdf"},{"category":"LATEST_JOBS NEW","title":"KVK Ambala Driver Vacancy 2026, Free Application From & Notification -","listing_date":"","organization":"Society for Creation of Heaven on Earth (SCHE)","post_name":"Driver","total_vacancy":"","sequence":77,"apply_online_link":"","apply_mode":"Offline","job_location":"Haryana","minimum_age":"18","maximum_age":"30","form_pdf_link":"https://cms.kvk2.in/assets/uploads/1777456739.Advertisement%20,%20Terms%20&%20Conditions%20&%20Application%20form%20for%20the%20post%20of%20Driver%20in%20Krishi%20Vigyan%20Kendra,%20Ambala.pdf","form_pdf_free_link":"","application_form_pdf_link":"","official_website_link":"","official_notification_pdf_link":"https://cms.kvk2.in/assets/uploads/1777456739.Advertisement%20,%20Terms%20&%20Conditions%20&%20Application%20form%20for%20the%20post%20of%20Driver%20in%20Krishi%20Vigyan%20Kendra,%20Ambala.pdf"},{"category":"LATEST_JOBS NEW","title":"Indian Air Force AFCAT 02/2026 Recruitment 2026 -","listing_date":"","organization":"Indian Air Force","post_name":"AFCAT/NCC Special Entry Recruitment 2026","total_vacancy":"142","sequence":78,"apply_online_link":"https://cdn.digialm.com/EForms/configuredHtml/1258/96171/login.html","apply_mode":"Online","job_location":"All India","minimum_age":"","maximum_age":"","form_pdf_link":"","form_pdf_free_link":"","application_form_pdf_link":"","official_website_link":"https://afcat.edcil.co.in/","official_notification_pdf_link":"https://afcat.edcil.co.in/"},{"category":"LATEST_JOBS NEW","title":"KUK UG and Integrated Course Admission Form 2026, Notification & Apply Online -","listing_date":"","organization":"Kurukshetra University, Kurukshetra (KUK)","post_name":"","total_vacancy":"","sequence":80,"apply_online_link":"https://iums.kuk.ac.in/anon_admissionHome.htm","apply_mode":"Online","job_location":"Haryana","minimum_age":"","maximum_age":"","form_pdf_link":"","form_pdf_free_link":"","application_form_pdf_link":"","official_website_link":"https://iums.kuk.ac.in/anon_admissionHome.htm","official_notification_pdf_link":"https://iums.kuk.ac.in/anon_admissionHome.htm"},{"category":"LATEST_JOBS NEW","title":"Amritsar GNDU Non-Teaching Vacancy 2026, Apply Online for Security Guard, Clerk & Other Posts -","listing_date":"","organization":"Guru Nanak Dev University, Amritsar (Punjab)","post_name":"Non-Teaching positions","total_vacancy":"41","sequence":81,"apply_online_link":"https://eservices.gndu.ac.in/recruitment/","apply_mode":"Online","job_location":"Punjab","minimum_age":"","maximum_age":"","form_pdf_link":"","form_pdf_free_link":"","application_form_pdf_link":"","official_website_link":"https://digital.gndu.ac.in/","official_notification_pdf_link":"https://digital.gndu.ac.in/pdf/news/Advt._No._4_20260507102444479.pdf"},{"category":"LATEST_JOBS NEW","title":"HBSE 12th Re-Check and Re-Evaluation Form 2026 -","listing_date":"","organization":"Board of School Education, Haryana","post_name":"","total_vacancy":"","sequence":83,"apply_online_link":"https://bseh.org.in/home","apply_mode":"Online","job_location":"","minimum_age":"","maximum_age":"","form_pdf_link":"","form_pdf_free_link":"","application_form_pdf_link":"","official_website_link":"https://bseh.org.in/home","official_notification_pdf_link":"https://bseh.org.in/home"},{"category":"LATEST_JOBS NEW","title":"Indian Railway Halt Agent Recruitment 2026, Free Application Form & Notification -","listing_date":"","organization":"North Western Railway, Bikaner","post_name":"Halt Agent","total_vacancy":"","sequence":86,"apply_online_link":"","apply_mode":"Offline","job_location":"Dokwa (DKWA) Halt Station","minimum_age":"18","maximum_age":"42","form_pdf_link":"","form_pdf_free_link":"https://drive.google.com/file/d/1ZTzmrxZng0eQoo4-gWhsMVqcYvKxiKFD/view?usp=sharing","application_form_pdf_link":"","official_website_link":"https://nwr.indianrailways.gov.in/","official_notification_pdf_link":"https://nwr.indianrailways.gov.in/nwr/notice/1777534189750_Dokwa%20halt%20agent%20notice.pdf"},{"category":"LATEST_JOBS NEW","title":"Konkan Railway Executive Vacancy 2026, Apply For Various Posts -","listing_date":"","organization":"Konkan Railway Corporation Limited (KRCL)","post_name":"Various Executive","total_vacancy":"17","sequence":87,"apply_online_link":"","apply_mode":"Offline","job_location":"All India","minimum_age":"18","maximum_age":"30","form_pdf_link":"","form_pdf_free_link":"https://konkanrailway.com/sites/default/files/2026-05/Employment_Notification_Executive_Categories.pdf","application_form_pdf_link":"","official_website_link":"https://konkanrailway.com/","official_notification_pdf_link":"https://konkanrailway.com/sites/default/files/2026-05/Employment_Notification_Executive_Categories.pdf"},{"category":"LATEST_JOBS NEW","title":"NVS Lucknow Recruitment 2026, Apply For Teaching & Non-Teaching Posts -","listing_date":"","organization":"Navodaya Vidyalaya Samiti","post_name":"PGT, TGT, Primary Teacher, Computer Teacher, Counsellor, Staff Nurse, Librarian, and other non-teaching","total_vacancy":"217","sequence":88,"apply_online_link":"https://navodaya.gov.in/nvs/ro/Lucknow/en/Academic/Circulars/","apply_mode":"Online","job_location":"Lucknow","minimum_age":"18","maximum_age":"50","form_pdf_link":"","form_pdf_free_link":"","application_form_pdf_link":"","official_website_link":"https://navodaya.gov.in/nvs/ro/Lucknow/en/Academic/Circulars/","official_notification_pdf_link":"https://drive.google.com/file/d/1ePUvM_3SWaXDhB8ptyR0MGkXH0Q_sYIj/view"}]}