{"page":8,"total_pages":9,"total":174,"jobs":[{"category":"SR_Admit_Card","title":"BSSC Office Attendant Mains Admit Card 2026 for 100 Post","listing_date":null,"organization":null,"post_name":null,"total_vacancy":null,"sequence":null,"apply_online_link":null,"apply_mode":null,"job_location":null,"minimum_age":null,"maximum_age":null,"form_pdf_link":null,"form_pdf_free_link":null,"application_form_pdf_link":null,"official_website_link":null,"official_notification_pdf_link":null},{"category":"SR_Admit_Card","title":"NCERT LDC Exam Answer Key 2026","listing_date":null,"organization":null,"post_name":null,"total_vacancy":null,"sequence":null,"apply_online_link":null,"apply_mode":null,"job_location":null,"minimum_age":null,"maximum_age":null,"form_pdf_link":null,"form_pdf_free_link":null,"application_form_pdf_link":null,"official_website_link":null,"official_notification_pdf_link":null},{"category":"SR_Admit_Card","title":"UP Police Sub Inspector SI PST DV Exam Date 2026 for 4543 Post","listing_date":null,"organization":null,"post_name":null,"total_vacancy":null,"sequence":null,"apply_online_link":null,"apply_mode":null,"job_location":null,"minimum_age":null,"maximum_age":null,"form_pdf_link":null,"form_pdf_free_link":null,"application_form_pdf_link":null,"official_website_link":null,"official_notification_pdf_link":null},{"category":"SR_Admit_Card","title":"Bihar BPSC 33 Civil Judge PCS J Pre Exam Date 2026 for 173 Post","listing_date":null,"organization":null,"post_name":null,"total_vacancy":null,"sequence":null,"apply_online_link":null,"apply_mode":null,"job_location":null,"minimum_age":null,"maximum_age":null,"form_pdf_link":null,"form_pdf_free_link":null,"application_form_pdf_link":null,"official_website_link":null,"official_notification_pdf_link":null},{"category":"SR_Admit_Card","title":"BPSSC Bihar Police Sub Inspector SI Mains Admit Card 2026","listing_date":null,"organization":null,"post_name":null,"total_vacancy":null,"sequence":null,"apply_online_link":null,"apply_mode":null,"job_location":null,"minimum_age":null,"maximum_age":null,"form_pdf_link":null,"form_pdf_free_link":null,"application_form_pdf_link":null,"official_website_link":null,"official_notification_pdf_link":null},{"category":"SR_Admit_Card","title":"RPSC Rajasthan Police Sub Inspector 2021 New Exam Date 2026","listing_date":null,"organization":null,"post_name":null,"total_vacancy":null,"sequence":null,"apply_online_link":null,"apply_mode":null,"job_location":null,"minimum_age":null,"maximum_age":null,"form_pdf_link":null,"form_pdf_free_link":null,"application_form_pdf_link":null,"official_website_link":null,"official_notification_pdf_link":null},{"category":"SR_Admit_Card","title":"Bihar Police BPSSC Havildar Clerk Home Guard Admit Card 2026","listing_date":null,"organization":null,"post_name":null,"total_vacancy":null,"sequence":null,"apply_online_link":null,"apply_mode":null,"job_location":null,"minimum_age":null,"maximum_age":null,"form_pdf_link":null,"form_pdf_free_link":null,"application_form_pdf_link":null,"official_website_link":null,"official_notification_pdf_link":null},{"category":"SR_Admit_Card","title":"BCECEB Bihar ITI Entrance Exam Admit Card 2026","listing_date":null,"organization":null,"post_name":null,"total_vacancy":null,"sequence":null,"apply_online_link":null,"apply_mode":null,"job_location":null,"minimum_age":null,"maximum_age":null,"form_pdf_link":null,"form_pdf_free_link":null,"application_form_pdf_link":null,"official_website_link":null,"official_notification_pdf_link":null},{"category":"SR_Admit_Card","title":"Railway RRB NTPC 10+2 UG Level CEN 07/2025 Exam City Details 2026","listing_date":null,"organization":null,"post_name":null,"total_vacancy":null,"sequence":null,"apply_online_link":null,"apply_mode":null,"job_location":null,"minimum_age":null,"maximum_age":null,"form_pdf_link":null,"form_pdf_free_link":null,"application_form_pdf_link":null,"official_website_link":null,"official_notification_pdf_link":null},{"category":"SR_Admit_Card","title":"NTA CUET UG Admit Card / Hall Ticket 2026","listing_date":null,"organization":null,"post_name":null,"total_vacancy":null,"sequence":null,"apply_online_link":null,"apply_mode":null,"job_location":null,"minimum_age":null,"maximum_age":null,"form_pdf_link":null,"form_pdf_free_link":null,"application_form_pdf_link":null,"official_website_link":null,"official_notification_pdf_link":null},{"category":"SR_Admit_Card","title":"SSC GD Constable Admit Card 2026 for 25487 Post","listing_date":null,"organization":null,"post_name":null,"total_vacancy":null,"sequence":null,"apply_online_link":null,"apply_mode":null,"job_location":null,"minimum_age":null,"maximum_age":null,"form_pdf_link":null,"form_pdf_free_link":null,"application_form_pdf_link":null,"official_website_link":null,"official_notification_pdf_link":null},{"category":"SR_Admission","title":"NTA ICAR AIEEA PG and PHd Admissions Online form 2026","listing_date":null,"organization":null,"post_name":null,"total_vacancy":null,"sequence":null,"apply_online_link":null,"apply_mode":null,"job_location":null,"minimum_age":null,"maximum_age":null,"form_pdf_link":null,"form_pdf_free_link":null,"application_form_pdf_link":null,"official_website_link":null,"official_notification_pdf_link":null},{"category":"SR_Admission","title":"ABVMU UP CAHET Entrance Test Online Form 2026","listing_date":null,"organization":null,"post_name":null,"total_vacancy":null,"sequence":null,"apply_online_link":null,"apply_mode":null,"job_location":null,"minimum_age":null,"maximum_age":null,"form_pdf_link":null,"form_pdf_free_link":null,"application_form_pdf_link":null,"official_website_link":null,"official_notification_pdf_link":null},{"category":"SR_Admission","title":"Allahabad University PGAT Admissions Online Form 2026","listing_date":null,"organization":null,"post_name":null,"total_vacancy":null,"sequence":null,"apply_online_link":null,"apply_mode":null,"job_location":null,"minimum_age":null,"maximum_age":null,"form_pdf_link":null,"form_pdf_free_link":null,"application_form_pdf_link":null,"official_website_link":null,"official_notification_pdf_link":null},{"category":"SR_Admission","title":"ABVMU UP GNM Entrance Test UPGET Online Form 2026","listing_date":null,"organization":null,"post_name":null,"total_vacancy":null,"sequence":null,"apply_online_link":null,"apply_mode":null,"job_location":null,"minimum_age":null,"maximum_age":null,"form_pdf_link":null,"form_pdf_free_link":null,"application_form_pdf_link":null,"official_website_link":null,"official_notification_pdf_link":null},{"category":"SR_Admission","title":"MUIT Noida and Lucknow Campus Admissions Online Form 2026","listing_date":null,"organization":null,"post_name":null,"total_vacancy":null,"sequence":null,"apply_online_link":null,"apply_mode":null,"job_location":null,"minimum_age":null,"maximum_age":null,"form_pdf_link":null,"form_pdf_free_link":null,"application_form_pdf_link":null,"official_website_link":null,"official_notification_pdf_link":null},{"category":"SR_Answer_Key","title":"IIT JEE Advanced Question Paper and Answer Key 2026","listing_date":null,"organization":null,"post_name":null,"total_vacancy":null,"sequence":null,"apply_online_link":null,"apply_mode":null,"job_location":null,"minimum_age":null,"maximum_age":null,"form_pdf_link":null,"form_pdf_free_link":null,"application_form_pdf_link":null,"official_website_link":null,"official_notification_pdf_link":null},{"category":"SR_Answer_Key","title":"DSSSB Delhi Answer Key 2026 April May","listing_date":null,"organization":null,"post_name":null,"total_vacancy":null,"sequence":null,"apply_online_link":null,"apply_mode":null,"job_location":null,"minimum_age":null,"maximum_age":null,"form_pdf_link":null,"form_pdf_free_link":null,"application_form_pdf_link":null,"official_website_link":null,"official_notification_pdf_link":null},{"category":"SR_Answer_Key","title":"MPESB Nursing Officer, Sister Tutor Answer Key 2026 for 2317 Post","listing_date":null,"organization":null,"post_name":null,"total_vacancy":null,"sequence":null,"apply_online_link":null,"apply_mode":null,"job_location":null,"minimum_age":null,"maximum_age":null,"form_pdf_link":null,"form_pdf_free_link":null,"application_form_pdf_link":null,"official_website_link":null,"official_notification_pdf_link":null},{"category":"UPCOMING_JOBS","title":"DSSC LDC, MTS, Steno, Etc. Posts Offline Form | Big Update 2026","listing_date":null,"organization":null,"post_name":null,"total_vacancy":null,"sequence":null,"apply_online_link":null,"apply_mode":null,"job_location":null,"minimum_age":null,"maximum_age":null,"form_pdf_link":null,"form_pdf_free_link":null,"application_form_pdf_link":null,"official_website_link":null,"official_notification_pdf_link":null}]}