{"page":6,"total_pages":9,"total":174,"jobs":[{"category":"SR_Latest_Jobs","title":"Railway RRB ALP CEN 01/2026 Online Form 2026 for 11127 Post","listing_date":null,"organization":null,"post_name":null,"total_vacancy":null,"sequence":null,"apply_online_link":null,"apply_mode":null,"job_location":null,"minimum_age":null,"maximum_age":null,"form_pdf_link":null,"form_pdf_free_link":null,"application_form_pdf_link":null,"official_website_link":null,"official_notification_pdf_link":null},{"category":"SR_Latest_Jobs","title":"NFL Field Representative Online Form 2026 for 40 Post","listing_date":null,"organization":null,"post_name":null,"total_vacancy":null,"sequence":null,"apply_online_link":null,"apply_mode":null,"job_location":null,"minimum_age":null,"maximum_age":null,"form_pdf_link":null,"form_pdf_free_link":null,"application_form_pdf_link":null,"official_website_link":null,"official_notification_pdf_link":null},{"category":"SR_Latest_Jobs","title":"Army 10+2 TES 56 Online Form 2026 for 90 Post January 2027 Batch","listing_date":null,"organization":null,"post_name":null,"total_vacancy":null,"sequence":null,"apply_online_link":null,"apply_mode":null,"job_location":null,"minimum_age":null,"maximum_age":null,"form_pdf_link":null,"form_pdf_free_link":null,"application_form_pdf_link":null,"official_website_link":null,"official_notification_pdf_link":null},{"category":"SR_Latest_Jobs","title":"SBI Trade Finance Officer TFO Online Form 2026 for 100 Post","listing_date":null,"organization":null,"post_name":null,"total_vacancy":null,"sequence":null,"apply_online_link":null,"apply_mode":null,"job_location":null,"minimum_age":null,"maximum_age":null,"form_pdf_link":null,"form_pdf_free_link":null,"application_form_pdf_link":null,"official_website_link":null,"official_notification_pdf_link":null},{"category":"SR_Latest_Jobs","title":"CTET September 2026 Online Form","listing_date":null,"organization":null,"post_name":null,"total_vacancy":null,"sequence":null,"apply_online_link":null,"apply_mode":null,"job_location":null,"minimum_age":null,"maximum_age":null,"form_pdf_link":null,"form_pdf_free_link":null,"application_form_pdf_link":null,"official_website_link":null,"official_notification_pdf_link":null},{"category":"SR_Latest_Jobs","title":"Bihar BPSC 72 Pre Exam Online Form 2026 for 1186 Post","listing_date":null,"organization":null,"post_name":null,"total_vacancy":null,"sequence":null,"apply_online_link":null,"apply_mode":null,"job_location":null,"minimum_age":null,"maximum_age":null,"form_pdf_link":null,"form_pdf_free_link":null,"application_form_pdf_link":null,"official_website_link":null,"official_notification_pdf_link":null},{"category":"SR_Latest_Jobs","title":"Rajasthan RSSB Teaching Associate Online Form 2026 for 3540 Post","listing_date":null,"organization":null,"post_name":null,"total_vacancy":null,"sequence":null,"apply_online_link":null,"apply_mode":null,"job_location":null,"minimum_age":null,"maximum_age":null,"form_pdf_link":null,"form_pdf_free_link":null,"application_form_pdf_link":null,"official_website_link":null,"official_notification_pdf_link":null},{"category":"SR_Latest_Jobs","title":"UPESSC UP Assistant Professor BEd Online Form 2026 for 107 Post","listing_date":null,"organization":null,"post_name":null,"total_vacancy":null,"sequence":null,"apply_online_link":null,"apply_mode":null,"job_location":null,"minimum_age":null,"maximum_age":null,"form_pdf_link":null,"form_pdf_free_link":null,"application_form_pdf_link":null,"official_website_link":null,"official_notification_pdf_link":null},{"category":"SR_Result","title":"RPSC Rajasthan Police Sub Inspector Telecom PET Result 2026","listing_date":null,"organization":null,"post_name":null,"total_vacancy":null,"sequence":null,"apply_online_link":null,"apply_mode":null,"job_location":null,"minimum_age":null,"maximum_age":null,"form_pdf_link":null,"form_pdf_free_link":null,"application_form_pdf_link":null,"official_website_link":null,"official_notification_pdf_link":null},{"category":"SR_Result","title":"Railway RRB Technician CEN 02/2025 Result 2026","listing_date":null,"organization":null,"post_name":null,"total_vacancy":null,"sequence":null,"apply_online_link":null,"apply_mode":null,"job_location":null,"minimum_age":null,"maximum_age":null,"form_pdf_link":null,"form_pdf_free_link":null,"application_form_pdf_link":null,"official_website_link":null,"official_notification_pdf_link":null},{"category":"SR_Result","title":"Delhi DSSSB Latest and Old Result 2026","listing_date":null,"organization":null,"post_name":null,"total_vacancy":null,"sequence":null,"apply_online_link":null,"apply_mode":null,"job_location":null,"minimum_age":null,"maximum_age":null,"form_pdf_link":null,"form_pdf_free_link":null,"application_form_pdf_link":null,"official_website_link":null,"official_notification_pdf_link":null},{"category":"SR_Result","title":"MPESB MP Police Sub Inspector SI Subedar Phase II Mains Result 2026","listing_date":null,"organization":null,"post_name":null,"total_vacancy":null,"sequence":null,"apply_online_link":null,"apply_mode":null,"job_location":null,"minimum_age":null,"maximum_age":null,"form_pdf_link":null,"form_pdf_free_link":null,"application_form_pdf_link":null,"official_website_link":null,"official_notification_pdf_link":null},{"category":"SR_Result","title":"UPSSSC UP Pharmacist Eligibility Result 2026 for 560 Post","listing_date":null,"organization":null,"post_name":null,"total_vacancy":null,"sequence":null,"apply_online_link":null,"apply_mode":null,"job_location":null,"minimum_age":null,"maximum_age":null,"form_pdf_link":null,"form_pdf_free_link":null,"application_form_pdf_link":null,"official_website_link":null,"official_notification_pdf_link":null},{"category":"SR_Result","title":"UPPSC LT Grade Assistant Teacher Mains Admit Card 2026","listing_date":null,"organization":null,"post_name":null,"total_vacancy":null,"sequence":null,"apply_online_link":null,"apply_mode":null,"job_location":null,"minimum_age":null,"maximum_age":null,"form_pdf_link":null,"form_pdf_free_link":null,"application_form_pdf_link":null,"official_website_link":null,"official_notification_pdf_link":null},{"category":"SR_Result","title":"RSMSSB Stenographer and PA Skill Test Result 2026 for 474 Post","listing_date":null,"organization":null,"post_name":null,"total_vacancy":null,"sequence":null,"apply_online_link":null,"apply_mode":null,"job_location":null,"minimum_age":null,"maximum_age":null,"form_pdf_link":null,"form_pdf_free_link":null,"application_form_pdf_link":null,"official_website_link":null,"official_notification_pdf_link":null},{"category":"SR_Result","title":"NTA National Teachers Eligibility Test NTET Result 2026","listing_date":null,"organization":null,"post_name":null,"total_vacancy":null,"sequence":null,"apply_online_link":null,"apply_mode":null,"job_location":null,"minimum_age":null,"maximum_age":null,"form_pdf_link":null,"form_pdf_free_link":null,"application_form_pdf_link":null,"official_website_link":null,"official_notification_pdf_link":null},{"category":"SR_Result","title":"CBSE Group A B C Various Post Tier II Exam Result 2026","listing_date":null,"organization":null,"post_name":null,"total_vacancy":null,"sequence":null,"apply_online_link":null,"apply_mode":null,"job_location":null,"minimum_age":null,"maximum_age":null,"form_pdf_link":null,"form_pdf_free_link":null,"application_form_pdf_link":null,"official_website_link":null,"official_notification_pdf_link":null},{"category":"SR_Result","title":"SSC Combined Graduate Level CGL 2025 Final Result 2026","listing_date":null,"organization":null,"post_name":null,"total_vacancy":null,"sequence":null,"apply_online_link":null,"apply_mode":null,"job_location":null,"minimum_age":null,"maximum_age":null,"form_pdf_link":null,"form_pdf_free_link":null,"application_form_pdf_link":null,"official_website_link":null,"official_notification_pdf_link":null},{"category":"SR_Result","title":"CBSE Board 12th Result 2026","listing_date":null,"organization":null,"post_name":null,"total_vacancy":null,"sequence":null,"apply_online_link":null,"apply_mode":null,"job_location":null,"minimum_age":null,"maximum_age":null,"form_pdf_link":null,"form_pdf_free_link":null,"application_form_pdf_link":null,"official_website_link":null,"official_notification_pdf_link":null},{"category":"SR_Result","title":"Railway RRB Junior Engineer JE CEN 05/2025 CBT II Exam Date 2026","listing_date":null,"organization":null,"post_name":null,"total_vacancy":null,"sequence":null,"apply_online_link":null,"apply_mode":null,"job_location":null,"minimum_age":null,"maximum_age":null,"form_pdf_link":null,"form_pdf_free_link":null,"application_form_pdf_link":null,"official_website_link":null,"official_notification_pdf_link":null}]}