{"page":2,"total_pages":9,"total":174,"jobs":[{"category":"OFFLINE_FORM","title":"ICAR-CIRB Hisar Recruitment 2026, Vacancy for Young Professional-II posts Salary ₹42,000 -","listing_date":"09 May. 2026","organization":"ICAR-Central Institute for Research on Buffaloes (ICAR-CIRB), Hisar","post_name":"Young Professional-II","total_vacancy":"","sequence":26,"apply_online_link":"","apply_mode":"Online by mail","job_location":"Haryana","minimum_age":"21","maximum_age":"45","form_pdf_link":"","form_pdf_free_link":"https://cirb.res.in/wp-content/uploads/2026/05/Advt.-no.-13-for-website_compressed.pdf","application_form_pdf_link":"","official_website_link":"https://cirb.res.in/#1515148541514-a02a1a2b-8047","official_notification_pdf_link":"https://cirb.res.in/wp-content/uploads/2026/05/Advt.-no.-13-for-website_compressed.pdf"},{"category":"OFFLINE_FORM","title":"SHKM GMC Nalhar Recruitment 2026, Vacancy for Senior Resident posts, Apply Now -","listing_date":"09 May. 2026","organization":"S.H.K.M. Government Medical College, Nalhar","post_name":"Senior Resident","total_vacancy":"81","sequence":27,"apply_online_link":"","apply_mode":"Offline","job_location":"Haryana","minimum_age":"22","maximum_age":"45","form_pdf_link":"","form_pdf_free_link":"","application_form_pdf_link":"","official_website_link":"https://www.gmcmewat.ac.in/","official_notification_pdf_link":"https://drive.google.com/file/d/1xn27tqOKq213s9uLuzWPT436pRJUZlhZ/view?usp=sharing"},{"category":"OFFLINE_FORM","title":"ICAR-IIWBR Karnal Recruitment 2026, Notification Out, Apply Now -","listing_date":"09 May. 2026","organization":"ICAR-Indian Institute of Wheat and Barley Research, Karnal","post_name":"SRF, YP-II, and YP-I","total_vacancy":"","sequence":28,"apply_online_link":"","apply_mode":"Offline","job_location":"Haryana","minimum_age":"21","maximum_age":"45","form_pdf_link":"https://iiwbr.org.in/announcement/","form_pdf_free_link":"","application_form_pdf_link":"","official_website_link":"https://iiwbr.org.in/announcement/","official_notification_pdf_link":""},{"category":"OFFLINE_FORM","title":"Pooja College of Education Kurukshetra Recruitment 2026, Free Application Form PDF -","listing_date":"09 May. 2026","organization":"The Pooja College of Education, Kurukshetra","post_name":"Librarian, Accountant, Computer Operator, Technical Assistant, Lab Attendant, Store Keeper, and Helper","total_vacancy":"","sequence":29,"apply_online_link":"https://drive.google.com/file/d/1GACUjqh1DcuO4ieB66iHHFNDWAVVjtW0/view?usp=drive_link","apply_mode":"Offline","job_location":"Haryana","minimum_age":"18","maximum_age":"42","form_pdf_link":"","form_pdf_free_link":"","application_form_pdf_link":"","official_website_link":"https://poojacollegekkr.com/","official_notification_pdf_link":""},{"category":"OFFLINE_FORM","title":"Yamunanagar Safai Karamchari Recruitment 2026 -","listing_date":"08 May. 2026","organization":"Office of Block Development & Panchayat Department","post_name":"Safai Karamchari","total_vacancy":"","sequence":30,"apply_online_link":"","apply_mode":"Offline","job_location":"Haryana","minimum_age":"18","maximum_age":"55","form_pdf_link":"https://drive.google.com/file/d/1TvZXdbSssgV9UC-A7yBQFhBamyhR4jqU/view?usp=drive_link","form_pdf_free_link":"","application_form_pdf_link":"","official_website_link":"","official_notification_pdf_link":""},{"category":"LATEST_JOBS NEW","title":"HPSC Assistant District Attorney Vacancy 2026, Check Detail & Apply Online -","listing_date":"","organization":"","post_name":"Total","total_vacancy":"","sequence":5,"apply_online_link":"https://hpsc.gov.in/en-us/Instructions","apply_mode":"","job_location":"","minimum_age":"21","maximum_age":"42","form_pdf_link":"","form_pdf_free_link":"","application_form_pdf_link":"","official_website_link":"https://hpsc.gov.in/en-us/Instructions","official_notification_pdf_link":"https://hpsc.gov.in/Portals/0/Ann_ADA_21_05_2026.pdf"},{"category":"LATEST_JOBS NEW","title":"CSIR (CIMFR) Technician Vacancy 2026, Notification Out, Apply Online -","listing_date":"","organization":"","post_name":"Total","total_vacancy":"","sequence":9,"apply_online_link":"https://devapps.ngri.res.in/CIMFR_group2_2026/index.jsp","apply_mode":"","job_location":"","minimum_age":"18","maximum_age":"28","form_pdf_link":"","form_pdf_free_link":"","application_form_pdf_link":"","official_website_link":"https://cimfr.res.in/vacancies.html","official_notification_pdf_link":"https://cimfr.res.in/upload_files/current_opportunity/1779253199_Tech.%20Gr%20II.pdf"},{"category":"LATEST_JOBS NEW","title":"Latest Jobs: Punjab & Sind Bank Invites Applications for 635 Apprentice Posts -","listing_date":"","organization":"","post_name":"Apprentice","total_vacancy":"","sequence":12,"apply_online_link":"","apply_mode":"","job_location":"Across India","minimum_age":"","maximum_age":"","form_pdf_link":"","form_pdf_free_link":"","application_form_pdf_link":"","official_website_link":"","official_notification_pdf_link":""},{"category":"LATEST_JOBS NEW","title":"BRO GREF Recruitment 2026, Vacancy Notification Apply Online -","listing_date":"","organization":"Border Roads Organization (BRO)","post_name":"Draftsman, Hindi Typist, Store Keeper, Technical Operator, and Electrician","total_vacancy":"899","sequence":13,"apply_online_link":"","apply_mode":"Online","job_location":"All India","minimum_age":"18","maximum_age":"27","form_pdf_link":"","form_pdf_free_link":"https://bro.gov.in/frontend/images/recruitments/recruitment_200526171410.pdf.pdf","application_form_pdf_link":"","official_website_link":"https://bro.gov.in/","official_notification_pdf_link":"https://bro.gov.in/frontend/images/recruitments/recruitment_200526171410.pdf.pdf"},{"category":"LATEST_JOBS NEW","title":"NBRC Research Associate-I Vacancy 2026, Apply Now , Free Form PDF -","listing_date":"","organization":"","post_name":"Total","total_vacancy":"","sequence":14,"apply_online_link":"","apply_mode":"","job_location":"","minimum_age":"18","maximum_age":"40","form_pdf_link":"","form_pdf_free_link":"https://www.nbrc.ac.in/newweb/wp-content/uploads/2026/05/Dr-Soumya-Research-Assoc-1.pdf","application_form_pdf_link":"","official_website_link":"https://www.nbrc.ac.in/newweb/","official_notification_pdf_link":"https://www.nbrc.ac.in/newweb/wp-content/uploads/2026/05/Dr-Soumya-Research-Assoc-1.pdf"},{"category":"LATEST_JOBS NEW","title":"APS Jaipur Vacancy 2026, Apply for Teaching and Non-Teaching Posts -","listing_date":"","organization":"","post_name":"Total","total_vacancy":"","sequence":15,"apply_online_link":"","apply_mode":"","job_location":"","minimum_age":"18","maximum_age":"60","form_pdf_link":"","form_pdf_free_link":"","application_form_pdf_link":"","official_website_link":"https://apsjaipur.edu.in/index.php#ads","official_notification_pdf_link":"https://apsjaipur.edu.in/admin/uploads/notice_6a0bc40d8aa4e3.14950259.pdf"},{"category":"LATEST_JOBS NEW","title":"HPSC Superintendent Vacancy 2026, Notification Out, Apply Online -","listing_date":"","organization":"","post_name":"Total","total_vacancy":"","sequence":17,"apply_online_link":"https://regn.hpsc.gov.in/legalsupdt26/","apply_mode":"","job_location":"","minimum_age":"18","maximum_age":"42","form_pdf_link":"","form_pdf_free_link":"","application_form_pdf_link":"","official_website_link":"https://regn.hpsc.gov.in/legalsupdt26/home/importantdates","official_notification_pdf_link":"https://regn.hpsc.gov.in/legalsupdt26/legal_advt.pdf"},{"category":"LATEST_JOBS NEW","title":"MLF Chandigarh Recruitment 2026, Application Form And Apply Now -","listing_date":"","organization":"","post_name":"Eligibility","total_vacancy":"","sequence":18,"apply_online_link":"","apply_mode":"","job_location":"","minimum_age":"18","maximum_age":"45","form_pdf_link":"","form_pdf_free_link":"https://militaryliteraturefestival.com/vacancy-sevadar-cum-safaiwala-may-2026.php","application_form_pdf_link":"","official_website_link":"https://militaryliteraturefestival.com/vacancy-sevadar-cum-safaiwala-may-2026.php","official_notification_pdf_link":"https://militaryliteraturefestival.com/vacancy-sevadar-cum-safaiwala-may-2026.php"},{"category":"LATEST_JOBS NEW","title":"Indian Railway Catering and Tourism Corporation Limited Hospitality Monitor Recruitment 2026 -","listing_date":"","organization":"","post_name":"Total","total_vacancy":"","sequence":20,"apply_online_link":"","apply_mode":"","job_location":"","minimum_age":"18","maximum_age":"27","form_pdf_link":"","form_pdf_free_link":"https://www.irctc.com/assets/images2/NotificationContractualHospitalityMonitors13may26.pdf","application_form_pdf_link":"","official_website_link":"https://www.irctc.com/new-openings.php","official_notification_pdf_link":"https://www.irctc.com/assets/images2/NotificationContractualHospitalityMonitors13may26.pdf"},{"category":"LATEST_JOBS NEW","title":"Hartron Empanelment of Trainers Recruitment 2026, Notification Out, Applt Online -","listing_date":"","organization":"","post_name":"Total","total_vacancy":"","sequence":21,"apply_online_link":"https://deployment.setchartron.in/Home.aspx","apply_mode":"","job_location":"","minimum_age":"18","maximum_age":"42","form_pdf_link":"","form_pdf_free_link":"","application_form_pdf_link":"","official_website_link":"https://deployment.setchartron.in/Home.aspx","official_notification_pdf_link":"https://www.hartron.org.in/wp-content/uploads/2026/05/AdvtICTET02.pdf"},{"category":"LATEST_JOBS NEW","title":"HAL Apprentice Vacancy 2026, Apply Online -","listing_date":"","organization":"","post_name":"Eligibility","total_vacancy":"","sequence":23,"apply_online_link":"https://docs.google.com/forms/d/e/1FAIpQLScXAUvxbQe98oiUoD4OCCJeu1SPdx/edit","apply_mode":"","job_location":"","minimum_age":"14","maximum_age":"27","form_pdf_link":"","form_pdf_free_link":"","application_form_pdf_link":"","official_website_link":"https://hal-india.co.in/","official_notification_pdf_link":"https://hal-india.co.in/backend//wp-content/uploads/career/Advertisement%20for%20Trade%20(ITI)%20Apprenticeship%20Training%202026-27_1779085063.pdf"},{"category":"LATEST_JOBS NEW","title":"Bank of Baroda Apprentice Vacancy 2026, Apply For 5000 Posts, Notification Out -","listing_date":"","organization":"","post_name":"Total","total_vacancy":"","sequence":29,"apply_online_link":"https://bankofbaroda.bank.in/career/current-opportunities/engagement-of-apprentices-under-the-apprentices-act-1961-08-06","apply_mode":"","job_location":"","minimum_age":"20","maximum_age":"28","form_pdf_link":"","form_pdf_free_link":"","application_form_pdf_link":"","official_website_link":"https://bankofbaroda.bank.in/career/current-opportunities/engagement-of-apprentices-under-the-apprentices-act-1961-08-06","official_notification_pdf_link":"https://bankofbaroda.bank.in/-/media/Project/BOB/CountryWebsites/India/Career/2026/26-05/19-05-2026-Advertisement-Apprenticeship-18-17.pdf"},{"category":"LATEST_JOBS NEW","title":"SBI Bank Apprentice Vacancy 2026, Online Apply For 7150 Posts, Notification Out -","listing_date":"","organization":"","post_name":"Total","total_vacancy":"","sequence":31,"apply_online_link":"https://sbi.bank.in/hi/web/careers/Current-openings","apply_mode":"","job_location":"","minimum_age":"20","maximum_age":"28","form_pdf_link":"","form_pdf_free_link":"","application_form_pdf_link":"","official_website_link":"https://sbi.bank.in/hi/web/careers/Current-openings","official_notification_pdf_link":""},{"category":"LATEST_JOBS NEW","title":"HKRN Accounts cum Office Assistant Vacancy 2026, Apply Online -","listing_date":"","organization":"Haryana Kaushal Rozgar Nigam","post_name":"Accounts cum Office Assistant","total_vacancy":"","sequence":32,"apply_online_link":"https://hkrnl.itiharyana.gov.in/VacantJobs","apply_mode":"Online","job_location":"","minimum_age":"18","maximum_age":"42","form_pdf_link":"","form_pdf_free_link":"","application_form_pdf_link":"","official_website_link":"https://hkrnl.itiharyana.gov.in/","official_notification_pdf_link":""},{"category":"LATEST_JOBS NEW","title":"HKRN Sanskar Teacher Recruitment 2026, Notification Out, Check Eligibility -","listing_date":"","organization":"Haryana Kaushal Rozgar Nigam","post_name":"Sanskar Teacher","total_vacancy":"10","sequence":33,"apply_online_link":"https://hkrnl.itiharyana.gov.in/VacantJobs","apply_mode":"Online","job_location":"","minimum_age":"18","maximum_age":"42","form_pdf_link":"","form_pdf_free_link":"","application_form_pdf_link":"","official_website_link":"https://hkrnl.itiharyana.gov.in/","official_notification_pdf_link":""}]}