{"category":"OFFLINE_FORM","page":2,"total_pages":2,"total":25,"jobs":[{"category":"OFFLINE_FORM","title":"ICAR-CIRB Hisar Recruitment 2026, Vacancy for Young Professional-II posts Salary ₹42,000 -","listing_date":"09 May. 2026","organization":"ICAR-Central Institute for Research on Buffaloes (ICAR-CIRB), Hisar","post_name":"Young Professional-II","total_vacancy":"","salary_pay_scale":"Rs. 42000/-","apply_mode":"Online by mail","job_location":"Haryana","important_dates":{"application_start":"08-05-2026","last_date":"18-05-2026","exam_date":"","interview_date":"05-06-2026"},"application_fees":{"general_obc_ews":"","sc_st":"00","female":""},"minimum_age":"21","maximum_age":"45","how_to_apply":"Eligible/Interested candidates can apply using the link given below. Download the Form: visit the official website………………… Fill the form in BLOCK CAPITAL letters carefully, and provide accurate personal, educational, and professional details. Attach all documents: Include Self-attested copies of educational certificates, experience letters, Fee Receipt , and age proof (Aadhar, PAN, etc.). The envelope containing the application should be superscribed as “Application for the post of ___________________”. Send Application Form: recruitment.cirb@gmail.com","form_pdf_free_link":"https://cirb.res.in/wp-content/uploads/2026/05/Advt.-no.-13-for-website_compressed.pdf","application_form_pdf_link":"","form_pdf_link":"","apply_online_link":"","official_notification_pdf_link":"https://cirb.res.in/wp-content/uploads/2026/05/Advt.-no.-13-for-website_compressed.pdf","official_website_link":"https://cirb.res.in/#1515148541514-a02a1a2b-8047","jobs_info":"","vacancy_details":[{"post_name":"Young Professional-II","total":"42000","eligibility":"Post Graduate in Life Sciences (with Genetics or Zoology or Biochemistry as one of the subjects)/Biotechnology/Nanotechnology/Medical Biotechnology with at least 60% marks or equivalent with one year experience in the relevant field OR BVSc & AH or Master’s Degree in any stream of Biological Sciences."}],"sequence":26},{"category":"OFFLINE_FORM","title":"SHKM GMC Nalhar Recruitment 2026, Vacancy for Senior Resident posts, Apply Now -","listing_date":"09 May. 2026","organization":"S.H.K.M. Government Medical College, Nalhar","post_name":"Senior Resident","total_vacancy":"81","salary_pay_scale":"Rs. 67,700/-","apply_mode":"Offline","job_location":"Haryana","important_dates":{"application_start":"08-05-2026","last_date":"18-05-2026","exam_date":"","interview_date":""},"application_fees":{"general_obc_ews":"","sc_st":"250","female":""},"minimum_age":"22","maximum_age":"45","how_to_apply":"Eligible/Interested candidates can apply using the link given below. Download the Form: visit the official website https://www.gmcmewat.ac.in/ Fill the form in BLOCK CAPITAL letters carefully, and provide accurate personal, educational, and professional details. Attach all documents: Include Self-attested copies of educational certificates, experience letters, Fee Receipt , and age proof (Aadhar, PAN, etc.). Also, attach a self-addressed envelope of size 25 cm x 10 cm. The envelope containing the application should be superscribed as “Application for the post of ___________________”. Send Application Form: Receipt & Dispatch Branch, SHKM, Govt. Medical College, Nalhar, Nuh","form_pdf_free_link":"","application_form_pdf_link":"","form_pdf_link":"","apply_online_link":"","official_notification_pdf_link":"https://drive.google.com/file/d/1xn27tqOKq213s9uLuzWPT436pRJUZlhZ/view?usp=sharing","official_website_link":"https://www.gmcmewat.ac.in/","jobs_info":"","vacancy_details":[{"post_name":"Senior Resident","total":"81","eligibility":"An MBBS degree is mandatory, along with an MD/MS/DNB degree in a relevant subject."}],"sequence":27},{"category":"OFFLINE_FORM","title":"ICAR-IIWBR Karnal Recruitment 2026, Notification Out, Apply Now -","listing_date":"09 May. 2026","organization":"ICAR-Indian Institute of Wheat and Barley Research, Karnal","post_name":"SRF, YP-II, and YP-I","total_vacancy":"","salary_pay_scale":"As per the Rules","apply_mode":"Offline","job_location":"Haryana","important_dates":{"application_start":"","last_date":"","exam_date":"","interview_date":""},"application_fees":{"general_obc_ews":"","sc_st":"00","female":""},"minimum_age":"21","maximum_age":"45","how_to_apply":"Eligible/Interested candidates can apply using the link given below. Download the Form: visit the official website https://iiwbr.org.in/announcement/ Fill the form in BLOCK CAPITAL letters carefully, and provide accurate personal, educational, and professional details. Attach all documents: Include Self-attested copies of educational certificates, experience letters, Fee Receipt , and age proof (Aadhar, PAN, etc.). Also, attach a self-addressed envelope of size 25 cm x 10 cm. The envelope containing the application should be superscribed as “Application for the post of ___________________”. Send Application Form: ICAR-Indian Institute of Wheat and Barley Research, Karnal","form_pdf_free_link":"","application_form_pdf_link":"","form_pdf_link":"https://iiwbr.org.in/announcement/","apply_online_link":"","official_notification_pdf_link":"","official_website_link":"https://iiwbr.org.in/announcement/","jobs_info":"","vacancy_details":[],"sequence":28},{"category":"OFFLINE_FORM","title":"Pooja College of Education Kurukshetra Recruitment 2026, Free Application Form PDF -","listing_date":"09 May. 2026","organization":"The Pooja College of Education, Kurukshetra","post_name":"Librarian, Accountant, Computer Operator, Technical Assistant, Lab Attendant, Store Keeper, and Helper","total_vacancy":"","salary_pay_scale":"As per the Rules","apply_mode":"Offline","job_location":"Haryana","important_dates":{"application_start":"09-05-2026","last_date":"19-05-2026","exam_date":"","interview_date":""},"application_fees":{"general_obc_ews":"","sc_st":"00","female":""},"minimum_age":"18","maximum_age":"42","how_to_apply":"Eligible/Interested candidates can apply using the link given below. Download the Form: visit the official website https://poojacollegekkr.com/ Fill the form in BLOCK CAPITAL letters carefully, and provide accurate personal, educational, and professional details. Attach all documents: Include Self-attested copies of educational certificates, experience letters, Fee Receipt , and age proof (Aadhar, PAN, etc.). Also, attach a self-addressed envelope of size 25 cm x 10 cm. The envelope containing the application should be superscribed as “Application for the post of ___________________”. Send Application Form: Pooja College of Education, Near Police Line, Opposite Sector-5, Kurukshetra, Haryana – 136131 It is mandatory to submit a copy of the application to the Office of the Dean of Colleges, Kurukshetra University, Kurukshetra","form_pdf_free_link":"","application_form_pdf_link":"","form_pdf_link":"","apply_online_link":"https://drive.google.com/file/d/1GACUjqh1DcuO4ieB66iHHFNDWAVVjtW0/view?usp=drive_link","official_notification_pdf_link":"","official_website_link":"https://poojacollegekkr.com/","jobs_info":"","vacancy_details":[],"sequence":29},{"category":"OFFLINE_FORM","title":"Yamunanagar Safai Karamchari Recruitment 2026 -","listing_date":"08 May. 2026","organization":"Office of Block Development & Panchayat Department","post_name":"Safai Karamchari","total_vacancy":"","salary_pay_scale":"16,000/- INR Per Month (Expected)","apply_mode":"Offline","job_location":"Haryana","important_dates":{"application_start":"08-05-2026","last_date":"21-05-2026","exam_date":"","interview_date":""},"application_fees":{"general_obc_ews":"","sc_st":"00","female":""},"minimum_age":"18","maximum_age":"55","how_to_apply":"Eligible/Interested candidates can apply using the link given below. Download the Form: Given Link below Fill the form in BLOCK CAPITAL letters carefully, and provide accurate personal, educational, and professional details. Attach all documents: Include Self-attested copies of educational certificates, experience letters, Fee Receipt , and age proof (Aadhar, PAN, etc.). The envelope containing the application should be superscribed as “Application for the post of ___________________”. Send Application Form: Block Development and Panchayat Officer (BDPO) Pratap Nagar, Yamunanagar","form_pdf_free_link":"","application_form_pdf_link":"","form_pdf_link":"https://drive.google.com/file/d/1TvZXdbSssgV9UC-A7yBQFhBamyhR4jqU/view?usp=drive_link","apply_online_link":"","official_notification_pdf_link":"","official_website_link":"","jobs_info":"","vacancy_details":[{"post_name":"Saafai Karamchari","total":"","eligibility":"5th"}],"sequence":30}]}